TH/Lab5/simulation/qsim/Lab5.msim.vcd
$comment
	File created using the following command:
		vcd file Lab5.msim.vcd -direction
$end
$date
	Thu Dec 15 15:20:37 2022
$end
$version
	ModelSim Version 10.1d
$end
$timescale
	1ps
$end
$scope module ROM_lab5_vlg_vec_tst $end
$var reg 7 ! addr [6:0] $end
$var reg 1 " clock $end
$var reg 1 # cs $end
$var reg 1 $ rd_en $end
$var wire 1 % data_out [7] $end
$var wire 1 & data_out [6] $end
$var wire 1 ' data_out [5] $end
$var wire 1 ( data_out [4] $end
$var wire 1 ) data_out [3] $end
$var wire 1 * data_out [2] $end
$var wire 1 + data_out [1] $end
$var wire 1 , data_out [0] $end
$scope module i1 $end
$var wire 1 - gnd $end
$var wire 1 . vcc $end
$var wire 1 / unknown $end
$var tri1 1 0 devclrn $end
$var tri1 1 1 devpor $end
$var tri1 1 2 devoe $end
$var wire 1 3 cs~combout $end
$var wire 1 4 rd_en~combout $end
$var wire 1 5 data_out~8_combout $end
$upscope $end
$upscope $end
$enddefinitions $end
#0
$dumpvars
b0 !
0"
1#
1$
0,
0+
0*
0)
0(
0'
0&
0%
0-
1.
x/
10
11
12
13
14
05
$end
#20000
1"
#40000
b1 !
0"
#60000
1"
#80000
b11 !
b10 !
0"
#100000
1"
#120000
b11 !
0"
#140000
1"
#160000
b111 !
b101 !
b100 !
0"
#180000
1"
#200000
b101 !
0"
#220000
1"
#240000
b111 !
b110 !
0"
#260000
1"
#280000
b111 !
0"
#300000
1"
#320000
b1111 !
b1011 !
b1001 !
b1000 !
0"
#340000
1"
#360000
b1001 !
0"
#380000
1"
#400000
b1011 !
b1010 !
0"
#420000
1"
#440000
b10 !
b0 !
0"
#460000
1"
#480000
b1 !
0"
#500000
1"
#520000
b11 !
b10 !
0"
#540000
1"
#560000
b11 !
0"
#580000
1"
#600000
b111 !
b101 !
b100 !
0"
#620000
1"
#640000
b101 !
0"
#660000
1"
#680000
b111 !
b110 !
0"
#700000
1"
#720000
b111 !
0"
#740000
1"
#760000
b1111 !
b1011 !
b1001 !
b1000 !
0"
#780000
1"
#800000
b1001 !
0"
#820000
1"
#840000
b1011 !
b1010 !
0"
#860000
1"
#880000
b1011 !
0"
#900000
1"
#920000
b1111 !
b1101 !
b1100 !
0"
#940000
1"
#960000
b1101 !
0"
