LT/HDL/DuyThong/Lnx/simulation/qsim/lnx.msim.vcd
$comment
	File created using the following command:
		vcd file lnx.msim.vcd -direction
$end
$date
	Thu Dec 08 14:03:05 2022
$end
$version
	ModelSim Version 10.1d
$end
$timescale
	1ps
$end
$scope module COUNTER_vlg_vec_tst $end
$var reg 1 ! CLK $end
$var reg 1 " ENABLE $end
$var reg 1 # RESET $end
$var reg 16 $ count_now [15:0] $end
$var wire 1 % count_next [15] $end
$var wire 1 & count_next [14] $end
$var wire 1 ' count_next [13] $end
$var wire 1 ( count_next [12] $end
$var wire 1 ) count_next [11] $end
$var wire 1 * count_next [10] $end
$var wire 1 + count_next [9] $end
$var wire 1 , count_next [8] $end
$var wire 1 - count_next [7] $end
$var wire 1 . count_next [6] $end
$var wire 1 / count_next [5] $end
$var wire 1 0 count_next [4] $end
$var wire 1 1 count_next [3] $end
$var wire 1 2 count_next [2] $end
$var wire 1 3 count_next [1] $end
$var wire 1 4 count_next [0] $end
$var wire 1 5 sampler $end
$scope module i1 $end
$var wire 1 6 gnd $end
$var wire 1 7 vcc $end
$var wire 1 8 unknown $end
$var tri1 1 9 devclrn $end
$var tri1 1 : devpor $end
$var tri1 1 ; devoe $end
$var wire 1 < CLK~combout $end
$var wire 1 = RESET~combout $end
$var wire 1 > ENABLE~combout $end
$var wire 1 ? REG0|reg0|Q~regout $end
$var wire 1 @ REG1|reg0|Q~regout $end
$var wire 1 A REG2|reg0|Q~regout $end
$var wire 1 B REG3|reg0|Q~regout $end
$var wire 1 C REG4|reg0|Q~regout $end
$var wire 1 D REG5|reg0|Q~regout $end
$var wire 1 E REG6|reg0|Q~regout $end
$var wire 1 F REG7|reg0|Q~regout $end
$var wire 1 G REG8|reg1|Q~0_combout $end
$var wire 1 H REG8|reg1|Q~regout $end
$var wire 1 I REG9|reg1|Q~regout $end
$var wire 1 J ADD|CAS10|FA0|xor2~combout $end
$var wire 1 K REG10|reg0|Q~regout $end
$var wire 1 L ADD|CAS11|FA0|xor2~combout $end
$var wire 1 M REG11|reg0|Q~regout $end
$var wire 1 N ADD|CAS12|FA0|xor2~combout $end
$var wire 1 O REG12|reg0|Q~regout $end
$var wire 1 P ADD|CAS12|FA0|and1~combout $end
$var wire 1 Q ADD|CAS13|FA0|xor2~combout $end
$var wire 1 R REG13|reg0|Q~regout $end
$var wire 1 S ADD|CAS14|FA0|xor2~combout $end
$var wire 1 T REG14|reg0|Q~regout $end
$var wire 1 U ADD|CAS15|FA0|xor2~combout $end
$var wire 1 V REG15|reg0|Q~regout $end
$var wire 1 W count_now~combout [15] $end
$var wire 1 X count_now~combout [14] $end
$var wire 1 Y count_now~combout [13] $end
$var wire 1 Z count_now~combout [12] $end
$var wire 1 [ count_now~combout [11] $end
$var wire 1 \ count_now~combout [10] $end
$var wire 1 ] count_now~combout [9] $end
$var wire 1 ^ count_now~combout [8] $end
$var wire 1 _ count_now~combout [7] $end
$var wire 1 ` count_now~combout [6] $end
$var wire 1 a count_now~combout [5] $end
$var wire 1 b count_now~combout [4] $end
$var wire 1 c count_now~combout [3] $end
$var wire 1 d count_now~combout [2] $end
$var wire 1 e count_now~combout [1] $end
$var wire 1 f count_now~combout [0] $end
$upscope $end
$upscope $end
$enddefinitions $end
#0
$dumpvars
0!
0"
0#
b0 $
04
03
02
01
00
0/
0.
0-
1,
1+
0*
0)
0(
0'
0&
0%
x5
06
17
x8
19
1:
1;
0<
0=
0>
0?
0@
0A
0B
0C
0D
0E
0F
1G
0H
0I
0J
0K
0L
0M
0N
0O
0P
0Q
0R
0S
0T
0U
0V
0f
0e
0d
0c
0b
0a
0`
0_
0^
0]
0\
0[
0Z
0Y
0X
0W
$end
#12000
b1000000000 $
1]
05
1J
#24000
b11000000000 $
b10000000000 $
0]
1\
15
#30000
1!
1<
05
#36000
b11000000000 $
1]
15
1L
0J
#40000
0!
0<
05
#48000
b111000000000 $
b101000000000 $
b100000000000 $
0]
0\
1[
15
#50000
1!
1<
05
#60000
b101000000000 $
0!
1]
0<
15
1J
#70000
1!
1<
05
#72000
b111000000000 $
b110000000000 $
0]
1\
15
#80000
0!
0<
05
#84000
b111000000000 $
1]
15
1N
0L
0J
#90000
1"
1!
1>
1<
05
1O
1I
1H
1(
0+
0,
#96000
b1111000000000 $
b1011000000000 $
b1001000000000 $
b1000000000000 $
0]
0\
0[
1Z
15
#100000
0!
0<
05
#108000
b1001000000000 $
1]
15
1J
#110000
1!
1<
05
1K
1*
#120000
b1011000000000 $
b1010000000000 $
0!
0]
1\
0<
15
#130000
1!
1<
05
0I
1+
#132000
b1011000000000 $
1]
15
1L
0J
#140000
0!
0<
05
#144000
b1111000000000 $
b1101000000000 $
b1100000000000 $
0]
0\
1[
15
#150000
1!
1<
05
1M
0K
1)
0*
#156000
b1101000000000 $
1]
15
1J
#160000
0!
0<
05
#168000
b1111000000000 $
b1110000000000 $
0]
1\
15
#170000
1!
1<
05
1K
1*
#180000
1#
b1111000000000 $
0!
1=
1]
0<
15
1P
0N
0L
0J
1Q
0O
0M
0K
0H
0(
0)
0*
1,
#190000
1!
1<
05
#192000
b11111000000000 $
b10111000000000 $
b10011000000000 $
b10001000000000 $
b10000000000000 $
0]
0\
0[
0Z
1Y
15
0P
1S
0Q
0S
1Q
#200000
0#
0!
0=
0<
05
#204000
b10001000000000 $
1]
15
1J
#210000
1!
1<
05
1R
1K
1I
1H
1'
1*
0+
0,
#216000
b10011000000000 $
b10010000000000 $
0]
1\
15
#220000
0!
0<
05
#228000
b10011000000000 $
1]
15
1L
0J
#230000
1!
1<
05
1M
0K
1)
0*
#240000
b10111000000000 $
b10101000000000 $
b10100000000000 $
0!
0]
0\
1[
0<
15
#250000
1!
1<
05
0I
1+
#252000
b10101000000000 $
1]
15
1J
#260000
0!
0<
05
#264000
b10111000000000 $
b10110000000000 $
0]
1\
15
#270000
1!
1<
05
1K
1*
#276000
b10111000000000 $
1]
15
1N
0L
0J
#280000
0!
0<
05
#288000
b11111000000000 $
b11011000000000 $
b11001000000000 $
b11000000000000 $
0]
0\
0[
1Z
15
#290000
1!
1<
05
1O
0M
0K
1(
0)
0*
#300000
b11001000000000 $
0!
1]
0<
15
1J
#310000
1!
1<
05
1K
1I
1*
0+
#312000
b11011000000000 $
b11010000000000 $
0]
1\
15
#320000
0!
0<
05
#324000
b11011000000000 $
1]
15
1L
0J
#330000
1!
1<
05
1M
0K
1)
0*
#336000
b11111000000000 $
b11101000000000 $
b11100000000000 $
0]
0\
1[
15
#340000
0!
0<
05
#348000
b11101000000000 $
1]
15
1J
#350000
1!
1<
05
1K
1*
#360000
b11111000000000 $
b11110000000000 $
0!
0]
1\
0<
15
#370000
1!
1<
05
0I
1+
#372000
b11111000000000 $
1]
15
1P
0N
0L
0J
1S
0Q
#380000
0!
0<
05
#384000
b111111000000000 $
b101111000000000 $
b100111000000000 $
b100011000000000 $
b100001000000000 $
b100000000000000 $
0]
0\
0[
0Z
0Y
1X
15
0P
1Q
0Q
#390000
1!
1<
05
1T
0R
0O
0M
0K
1&
0'
0(
0)
0*
#396000
b100001000000000 $
1]
15
1J
#400000
0!
0<
05
#408000
b100011000000000 $
b100010000000000 $
0]
1\
15
#410000
1!
1<
05
1K
1*
#420000
b100011000000000 $
0!
1]
0<
15
1L
0J
#430000
1!
1<
05
1M
0K
1I
1)
0*
0+
#432000
b100111000000000 $
b100101000000000 $
b100100000000000 $
0]
0\
1[
15
#440000
0!
0<
05
#444000
b100101000000000 $
1]
15
1J
#450000
1!
1<
05
1K
1*
#456000
b100111000000000 $
b100110000000000 $
0]
1\
15
#460000
0!
0<
05
#468000
b100111000000000 $
1]
15
1N
0L
0J
#470000
1!
1<
05
1O
0M
0K
1(
0)
0*
#480000
0"
b101111000000000 $
b101011000000000 $
b101001000000000 $
b101000000000000 $
0!
0>
0]
0\
0[
1Z
0<
15
#490000
1!
1<
05
#492000
b101001000000000 $
1]
15
1J
#500000
0!
0<
05
#504000
b101011000000000 $
b101010000000000 $
0]
1\
15
#510000
1!
1<
05
#516000
b101011000000000 $
1]
15
1L
0J
#520000
0!
0<
05
#528000
b101111000000000 $
b101101000000000 $
b101100000000000 $
0]
0\
1[
15
#530000
1!
1<
05
#540000
b101101000000000 $
0!
1]
0<
15
1J
#550000
1!
1<
05
#552000
b101111000000000 $
b101110000000000 $
0]
1\
15
#560000
0!
0<
05
#564000
b101111000000000 $
1]
15
1P
0N
0L
0J
1Q
#570000
1!
1<
05
#576000
b111111000000000 $
b110111000000000 $
b110011000000000 $
b110001000000000 $
b110000000000000 $
0]
0\
0[
0Z
1Y
15
0P
1U
0S
0Q
0U
1S
1Q
#580000
0!
0<
05
#588000
b110001000000000 $
1]
15
1J
#590000
1!
1<
05
#600000
b110011000000000 $
b110010000000000 $
0!
0]
1\
0<
15
#610000
1!
1<
05
#612000
b110011000000000 $
1]
15
1L
0J
#620000
0!
0<
05
#624000
b110111000000000 $
b110101000000000 $
b110100000000000 $
0]
0\
1[
15
#630000
1!
1<
05
#636000
b110101000000000 $
1]
15
1J
#640000
0!
0<
05
#648000
b110111000000000 $
b110110000000000 $
0]
1\
15
#650000
1!
1<
05
#660000
b110111000000000 $
0!
1]
0<
15
1N
0L
0J
#670000
1!
1<
05
#672000
b111111000000000 $
b111011000000000 $
b111001000000000 $
b111000000000000 $
0]
0\
0[
1Z
15
#680000
0!
0<
05
#684000
b111001000000000 $
1]
15
1J
#690000
1!
1<
05
#696000
b111011000000000 $
b111010000000000 $
0]
1\
15
#700000
0!
0<
05
#708000
b111011000000000 $
1]
15
1L
0J
#710000
1!
1<
05
#720000
b111111000000000 $
b111101000000000 $
b111100000000000 $
0!
0]
0\
1[
0<
15
#730000
1!
1<
05
#732000
b111101000000000 $
1]
15
1J
#740000
0!
0<
05
#744000
b111111000000000 $
b111110000000000 $
0]
1\
15
#750000
1!
1<
05
#756000
b111111000000000 $
1]
15
1P
0N
0L
0J
1U
0S
0Q
#760000
0!
0<
05
#768000
b1111111000000000 $
b1011111000000000 $
b1001111000000000 $
b1000111000000000 $
b1000011000000000 $
b1000001000000000 $
b1000000000000000 $
0]
0\
0[
0Z
0Y
0X
1W
15
0P
1Q
0Q
#770000
1!
1<
05
#780000
b1000001000000000 $
0!
1]
0<
15
1J
#790000
1!
1<
05
#792000
b1000011000000000 $
b1000010000000000 $
0]
1\
15
#800000
0!
0<
05
#804000
b1000011000000000 $
1]
15
1L
0J
#810000
1!
1<
05
#816000
b1000111000000000 $
b1000101000000000 $
b1000100000000000 $
0]
0\
1[
15
#820000
0!
0<
05
#828000
b1000101000000000 $
1]
15
1J
#830000
1!
1<
05
#840000
b1000111000000000 $
b1000110000000000 $
0!
0]
1\
0<
15
#850000
1!
1<
05
#852000
b1000111000000000 $
1]
15
1N
0L
0J
#860000
0!
0<
05
#864000
b1001111000000000 $
b1001011000000000 $
b1001001000000000 $
b1001000000000000 $
0]
0\
0[
1Z
15
#870000
1!
1<
05
#876000
b1001001000000000 $
1]
15
1J
#880000
0!
0<
05
#888000
b1001011000000000 $
b1001010000000000 $
0]
1\
15
#890000
1!
1<
05
#900000
b1001011000000000 $
0!
1]
0<
15
1L
0J
#910000
1!
1<
05
#912000
b1001111000000000 $
b1001101000000000 $
b1001100000000000 $
0]
0\
1[
15
#920000
0!
0<
05
#924000
b1001101000000000 $
1]
15
1J
#930000
1!
1<
05
#936000
b1001111000000000 $
b1001110000000000 $
0]
1\
15
#940000
0!
0<
05
#948000
b1001111000000000 $
1]
15
1P
0N
0L
0J
1Q
#950000
1!
1<
05
#960000
b1011111000000000 $
b1010111000000000 $
b1010011000000000 $
b1010001000000000 $
b1010000000000000 $
0!
0]
0\
0[
0Z
1Y
0<
15
0P
1S
0Q
0S
1Q
#970000
1!
1<
05
#972000
b1010001000000000 $
1]
15
1J
#980000
0!
0<
05
#984000
b1010011000000000 $
b1010010000000000 $
0]
1\
15
#990000
1!
1<
05
#996000
b1010011000000000 $
1]
15
1L
0J
