TH/Lab6/simulation/qsim/cuoiky.msim.vcd
$comment
	File created using the following command:
		vcd file cuoiky.msim.vcd -direction
$end
$date
	Mon Dec 19 16:20:14 2022
$end
$version
	ModelSim Version 10.1d
$end
$timescale
	1ps
$end
$scope module ALU_vlg_vec_tst $end
$var reg 32 ! inA [31:0] $end
$var reg 32 " inB [31:0] $end
$var reg 3 # s [2:0] $end
$var wire 1 $ result [31] $end
$var wire 1 % result [30] $end
$var wire 1 & result [29] $end
$var wire 1 ' result [28] $end
$var wire 1 ( result [27] $end
$var wire 1 ) result [26] $end
$var wire 1 * result [25] $end
$var wire 1 + result [24] $end
$var wire 1 , result [23] $end
$var wire 1 - result [22] $end
$var wire 1 . result [21] $end
$var wire 1 / result [20] $end
$var wire 1 0 result [19] $end
$var wire 1 1 result [18] $end
$var wire 1 2 result [17] $end
$var wire 1 3 result [16] $end
$var wire 1 4 result [15] $end
$var wire 1 5 result [14] $end
$var wire 1 6 result [13] $end
$var wire 1 7 result [12] $end
$var wire 1 8 result [11] $end
$var wire 1 9 result [10] $end
$var wire 1 : result [9] $end
$var wire 1 ; result [8] $end
$var wire 1 < result [7] $end
$var wire 1 = result [6] $end
$var wire 1 > result [5] $end
$var wire 1 ? result [4] $end
$var wire 1 @ result [3] $end
$var wire 1 A result [2] $end
$var wire 1 B result [1] $end
$var wire 1 C result [0] $end
$var wire 1 D sampler $end
$scope module i1 $end
$var wire 1 E gnd $end
$var wire 1 F vcc $end
$var wire 1 G unknown $end
$var tri1 1 H devclrn $end
$var tri1 1 I devpor $end
$var tri1 1 J devoe $end
$var wire 1 K Add1~0_combout $end
$var wire 1 L Add1~6_combout $end
$var wire 1 M Add1~10_combout $end
$var wire 1 N Add1~14_combout $end
$var wire 1 O Add1~18_combout $end
$var wire 1 P Add1~22_combout $end
$var wire 1 Q Add1~26_combout $end
$var wire 1 R Add1~30_combout $end
$var wire 1 S Add1~34_combout $end
$var wire 1 T Add1~38_combout $end
$var wire 1 U Add1~42_combout $end
$var wire 1 V Add1~46_combout $end
$var wire 1 W Add1~50_combout $end
$var wire 1 X Add1~54_combout $end
$var wire 1 Y Add1~58_combout $end
$var wire 1 Z Add1~62_combout $end
$var wire 1 [ Add1~66_combout $end
$var wire 1 \ Add1~70_combout $end
$var wire 1 ] Add1~74_combout $end
$var wire 1 ^ Add1~78_combout $end
$var wire 1 _ Add1~82_combout $end
$var wire 1 ` Add1~86_combout $end
$var wire 1 a Add1~90_combout $end
$var wire 1 b Add1~94_combout $end
$var wire 1 c Add1~98_combout $end
$var wire 1 d Add1~102_combout $end
$var wire 1 e Add1~106_combout $end
$var wire 1 f Add1~110_combout $end
$var wire 1 g Add1~114_combout $end
$var wire 1 h Add1~118_combout $end
$var wire 1 i Add1~122_combout $end
$var wire 1 j Add1~126_combout $end
$var wire 1 k Add1~2_cout $end
$var wire 1 l Add1~3_combout $end
$var wire 1 m Mux31~0_combout $end
$var wire 1 n Add1~5_combout $end
$var wire 1 o Add1~4 $end
$var wire 1 p Add1~7_combout $end
$var wire 1 q Mux30~0_combout $end
$var wire 1 r Add1~9_combout $end
$var wire 1 s Add1~8 $end
$var wire 1 t Add1~11_combout $end
$var wire 1 u Mux29~0_combout $end
$var wire 1 v Add1~13_combout $end
$var wire 1 w Add1~12 $end
$var wire 1 x Add1~15_combout $end
$var wire 1 y Mux28~0_combout $end
$var wire 1 z Add1~17_combout $end
$var wire 1 { Add1~16 $end
$var wire 1 | Add1~19_combout $end
$var wire 1 } Mux27~0_combout $end
$var wire 1 ~ Add1~21_combout $end
$var wire 1 !! Add1~20 $end
$var wire 1 "! Add1~23_combout $end
$var wire 1 #! Mux26~0_combout $end
$var wire 1 $! Add1~25_combout $end
$var wire 1 %! Add1~24 $end
$var wire 1 &! Add1~27_combout $end
$var wire 1 '! Mux25~0_combout $end
$var wire 1 (! Add1~29_combout $end
$var wire 1 )! Add1~28 $end
$var wire 1 *! Add1~31_combout $end
$var wire 1 +! Mux24~0_combout $end
$var wire 1 ,! Add1~33_combout $end
$var wire 1 -! Add1~32 $end
$var wire 1 .! Add1~35_combout $end
$var wire 1 /! Mux23~0_combout $end
$var wire 1 0! Add1~37_combout $end
$var wire 1 1! Add1~36 $end
$var wire 1 2! Add1~39_combout $end
$var wire 1 3! Mux22~0_combout $end
$var wire 1 4! Add1~41_combout $end
$var wire 1 5! Add1~40 $end
$var wire 1 6! Add1~43_combout $end
$var wire 1 7! Mux21~0_combout $end
$var wire 1 8! Add1~45_combout $end
$var wire 1 9! Add1~44 $end
$var wire 1 :! Add1~47_combout $end
$var wire 1 ;! Mux20~0_combout $end
$var wire 1 <! Add1~49_combout $end
$var wire 1 =! Add1~48 $end
$var wire 1 >! Add1~51_combout $end
$var wire 1 ?! Mux19~0_combout $end
$var wire 1 @! Add1~53_combout $end
$var wire 1 A! Add1~52 $end
$var wire 1 B! Add1~55_combout $end
$var wire 1 C! Mux18~0_combout $end
$var wire 1 D! Add1~57_combout $end
$var wire 1 E! Add1~56 $end
$var wire 1 F! Add1~59_combout $end
$var wire 1 G! Mux17~0_combout $end
$var wire 1 H! Add1~61_combout $end
$var wire 1 I! Add1~60 $end
$var wire 1 J! Add1~63_combout $end
$var wire 1 K! Mux16~0_combout $end
$var wire 1 L! Add1~65_combout $end
$var wire 1 M! Add1~64 $end
$var wire 1 N! Add1~67_combout $end
$var wire 1 O! Mux15~0_combout $end
$var wire 1 P! Add1~69_combout $end
$var wire 1 Q! Add1~68 $end
$var wire 1 R! Add1~71_combout $end
$var wire 1 S! Mux14~0_combout $end
$var wire 1 T! Add1~73_combout $end
$var wire 1 U! Add1~72 $end
$var wire 1 V! Add1~75_combout $end
$var wire 1 W! Mux13~0_combout $end
$var wire 1 X! Add1~77_combout $end
$var wire 1 Y! Add1~76 $end
$var wire 1 Z! Add1~79_combout $end
$var wire 1 [! Mux12~0_combout $end
$var wire 1 \! Add1~81_combout $end
$var wire 1 ]! Add1~80 $end
$var wire 1 ^! Add1~83_combout $end
$var wire 1 _! Mux11~0_combout $end
$var wire 1 `! Add1~85_combout $end
$var wire 1 a! Add1~84 $end
$var wire 1 b! Add1~87_combout $end
$var wire 1 c! Mux10~0_combout $end
$var wire 1 d! Add1~89_combout $end
$var wire 1 e! Add1~88 $end
$var wire 1 f! Add1~91_combout $end
$var wire 1 g! Mux9~0_combout $end
$var wire 1 h! Add1~93_combout $end
$var wire 1 i! Add1~92 $end
$var wire 1 j! Add1~95_combout $end
$var wire 1 k! Mux8~0_combout $end
$var wire 1 l! Add1~97_combout $end
$var wire 1 m! Add1~96 $end
$var wire 1 n! Add1~99_combout $end
$var wire 1 o! Mux7~0_combout $end
$var wire 1 p! Add1~101_combout $end
$var wire 1 q! Add1~100 $end
$var wire 1 r! Add1~103_combout $end
$var wire 1 s! Mux6~0_combout $end
$var wire 1 t! Add1~105_combout $end
$var wire 1 u! Add1~104 $end
$var wire 1 v! Add1~107_combout $end
$var wire 1 w! Mux5~0_combout $end
$var wire 1 x! Add1~109_combout $end
$var wire 1 y! Add1~108 $end
$var wire 1 z! Add1~111_combout $end
$var wire 1 {! Mux4~0_combout $end
$var wire 1 |! Add1~113_combout $end
$var wire 1 }! Add1~112 $end
$var wire 1 ~! Add1~115_combout $end
$var wire 1 !" Mux3~0_combout $end
$var wire 1 "" Add1~117_combout $end
$var wire 1 #" Add1~116 $end
$var wire 1 $" Add1~119_combout $end
$var wire 1 %" Mux2~0_combout $end
$var wire 1 &" Add1~121_combout $end
$var wire 1 '" Add1~120 $end
$var wire 1 (" Add1~123_combout $end
$var wire 1 )" Mux1~0_combout $end
$var wire 1 *" Add1~125_combout $end
$var wire 1 +" Add1~124 $end
$var wire 1 ," Add1~127_combout $end
$var wire 1 -" Mux0~0_combout $end
$var wire 1 ." Add1~129_combout $end
$var wire 1 /" s~combout [2] $end
$var wire 1 0" s~combout [1] $end
$var wire 1 1" s~combout [0] $end
$var wire 1 2" inB~combout [31] $end
$var wire 1 3" inB~combout [30] $end
$var wire 1 4" inB~combout [29] $end
$var wire 1 5" inB~combout [28] $end
$var wire 1 6" inB~combout [27] $end
$var wire 1 7" inB~combout [26] $end
$var wire 1 8" inB~combout [25] $end
$var wire 1 9" inB~combout [24] $end
$var wire 1 :" inB~combout [23] $end
$var wire 1 ;" inB~combout [22] $end
$var wire 1 <" inB~combout [21] $end
$var wire 1 =" inB~combout [20] $end
$var wire 1 >" inB~combout [19] $end
$var wire 1 ?" inB~combout [18] $end
$var wire 1 @" inB~combout [17] $end
$var wire 1 A" inB~combout [16] $end
$var wire 1 B" inB~combout [15] $end
$var wire 1 C" inB~combout [14] $end
$var wire 1 D" inB~combout [13] $end
$var wire 1 E" inB~combout [12] $end
$var wire 1 F" inB~combout [11] $end
$var wire 1 G" inB~combout [10] $end
$var wire 1 H" inB~combout [9] $end
$var wire 1 I" inB~combout [8] $end
$var wire 1 J" inB~combout [7] $end
$var wire 1 K" inB~combout [6] $end
$var wire 1 L" inB~combout [5] $end
$var wire 1 M" inB~combout [4] $end
$var wire 1 N" inB~combout [3] $end
$var wire 1 O" inB~combout [2] $end
$var wire 1 P" inB~combout [1] $end
$var wire 1 Q" inB~combout [0] $end
$var wire 1 R" inA~combout [31] $end
$var wire 1 S" inA~combout [30] $end
$var wire 1 T" inA~combout [29] $end
$var wire 1 U" inA~combout [28] $end
$var wire 1 V" inA~combout [27] $end
$var wire 1 W" inA~combout [26] $end
$var wire 1 X" inA~combout [25] $end
$var wire 1 Y" inA~combout [24] $end
$var wire 1 Z" inA~combout [23] $end
$var wire 1 [" inA~combout [22] $end
$var wire 1 \" inA~combout [21] $end
$var wire 1 ]" inA~combout [20] $end
$var wire 1 ^" inA~combout [19] $end
$var wire 1 _" inA~combout [18] $end
$var wire 1 `" inA~combout [17] $end
$var wire 1 a" inA~combout [16] $end
$var wire 1 b" inA~combout [15] $end
$var wire 1 c" inA~combout [14] $end
$var wire 1 d" inA~combout [13] $end
$var wire 1 e" inA~combout [12] $end
$var wire 1 f" inA~combout [11] $end
$var wire 1 g" inA~combout [10] $end
$var wire 1 h" inA~combout [9] $end
$var wire 1 i" inA~combout [8] $end
$var wire 1 j" inA~combout [7] $end
$var wire 1 k" inA~combout [6] $end
$var wire 1 l" inA~combout [5] $end
$var wire 1 m" inA~combout [4] $end
$var wire 1 n" inA~combout [3] $end
$var wire 1 o" inA~combout [2] $end
$var wire 1 p" inA~combout [1] $end
$var wire 1 q" inA~combout [0] $end
$upscope $end
$upscope $end
$enddefinitions $end
#0
$dumpvars
b101000010000011101110000010111 !
b1010100111100110101010100110110 "
b0 #
0C
0B
0A
1@
0?
1>
1=
1<
1;
1:
09
08
07
16
05
04
03
12
11
10
1/
1.
0-
1,
1+
1*
1)
0(
1'
0&
1%
1$
xD
0E
1F
xG
1H
1I
1J
1K
1L
1M
1N
1O
1P
1Q
1R
1S
1T
1U
1V
1W
1X
1Y
1Z
1[
1\
1]
1^
1_
1`
1a
1b
1c
1d
1e
1f
1g
1h
1i
1j
0k
0l
0m
0n
0o
1p
0q
0r
1s
1t
0u
0v
0w
0x
1y
1z
1{
1|
0}
0~
0!!
0"!
1#!
1$!
1%!
0&!
1'!
1(!
0)!
0*!
1+!
1,!
1-!
0.!
1/!
10!
01!
02!
13!
14!
15!
16!
07!
08!
09!
1:!
0;!
0<!
1=!
1>!
0?!
0@!
0A!
0B!
1C!
1D!
1E!
1F!
0G!
0H!
0I!
1J!
0K!
0L!
1M!
1N!
0O!
0P!
0Q!
0R!
1S!
1T!
1U!
0V!
1W!
1X!
0Y!
0Z!
1[!
1\!
1]!
0^!
1_!
1`!
0a!
0b!
1c!
1d!
1e!
1f!
0g!
0h!
0i!
0j!
1k!
1l!
1m!
0n!
1o!
1p!
0q!
0r!
1s!
1t!
1u!
0v!
1w!
1x!
0y!
1z!
0{!
0|!
1}!
0~!
1!"
1""
0#"
1$"
0%"
0&"
1'"
0("
1)"
1*"
0+"
0,"
1-"
1."
01"
00"
0/"
0Q"
1P"
1O"
0N"
1M"
1L"
0K"
0J"
1I"
0H"
1G"
0F"
1E"
0D"
1C"
0B"
1A"
1@"
0?"
0>"
1="
1<"
1;"
1:"
09"
08"
17"
06"
15"
04"
13"
02"
1q"
1p"
1o"
0n"
1m"
0l"
0k"
0j"
0i"
0h"
1g"
1f"
1e"
0d"
1c"
1b"
1a"
0`"
0_"
0^"
0]"
0\"
1["
0Z"
0Y"
0X"
0W"
1V"
0U"
1T"
0S"
0R"
$end
#50000
b1 #
11"
0D
0-"
0)"
0!"
0w!
0s!
0o!
0k!
1g!
0c!
0_!
0[!
0W!
0S!
1O!
1G!
0C!
1?!
17!
03!
0/!
0+!
0'!
0#!
1}
0y
1u
1q
0j
0h
0f
0d
0c
0^
0]
0Z
0X
0V
0T
0R
0Q
0N
0K
0."
0*"
0""
0x!
0t!
0p!
0l!
1h!
0d!
0`!
0\!
0X!
0T!
1P!
1H!
0D!
1@!
18!
04!
00!
0,!
0(!
0$!
1~
0z
1v
1r
1,"
0$"
0z!
0u!
1r!
1q!
1n!
0]!
1Z!
1Y!
1V!
0J!
0E!
1B!
0:!
05!
12!
0-!
1*!
1)!
1&!
0{
1x
1o
1l
1y!
1v!
0r!
1a!
1^!
0Z!
0F!
06!
11!
1.!
0*!
0|
0p
0$
0%
0'
0)
0*
0+
0,
1-
0.
0/
00
01
02
13
15
06
17
19
0:
0;
0<
0=
0>
1?
0@
1A
1B
0}!
1z!
0e!
1b!
02!
1#"
1~!
0f!
0'"
1$"
1+"
1("
0,"
#100000
b11 #
b10 #
01"
10"
1D
1)"
1%"
1!"
1{!
1w!
1k!
0g!
1c!
1_!
1S!
0O!
1K!
0G!
0?!
1;!
07!
1/!
1#!
0}
0u
0q
1m
1k
1j
0i
1h
0g
1f
0e
1d
1c
0b
0a
0`
0_
1^
1]
0\
0[
1Z
0Y
1X
0W
1V
0U
1T
0S
1R
1Q
0P
0O
1N
0M
0L
1K
1*"
1&"
1""
1|!
1x!
1l!
0h!
1d!
1`!
1T!
0P!
1L!
0H!
0@!
1<!
08!
10!
1$!
0~
0v
0r
1n
0o
1,"
0("
1'"
0$"
0~!
1}!
0z!
0v!
1r!
0q!
0n!
0m!
1j!
1i!
1f!
0b!
0^!
1Z!
0Y!
0V!
0U!
1R!
0N!
1J!
1I!
1F!
1E!
0B!
0>!
1:!
19!
16!
12!
0.!
1*!
0)!
0&!
0%!
1"!
1!!
1|
1{
0x
0t
0s
1p
1s
0p
1("
1~!
1u!
0r!
1q!
1n!
0j!
1]!
0Z!
1Y!
1V!
0J!
0I!
0F!
0:!
1-!
0*!
1)!
1&!
0"!
0!!
0|
1w
1t
1%
1&
1'
1(
1)
1,
0-
1.
1/
12
03
14
05
07
18
09
1;
1>
0?
0A
0B
1C
0w
0t
1v!
0u!
1r!
1^!
0]!
1Z!
1J!
1.!
0-!
1*!
1"!
0{
1x
1{
0x
0v!
0^!
0.!
1!!
1|
0!!
0|
0"!
1"!
#150000
b11 #
11"
0D
1g!
1O!
1G!
1?!
17!
1}
1u
1q
0k
0j
0h
0f
0d
0c
0^
0]
0Z
0X
0V
0T
0R
0Q
0N
1h!
1P!
1H!
1@!
18!
1~
1v
1r
0l
0,"
0'"
1$"
0}!
1z!
0r!
0n!
0Z!
0V!
0J!
0E!
1B!
0=!
1:!
02!
0*!
0&!
0{
1x
0("
0~!
1I!
1F!
1A!
1>!
1!!
1|
1-
13
15
17
19
1?
1A
1B
0M!
1J!
0B!
0"!
1Q!
1N!
0R!
#200000
b111 #
b101 #
b100 #
01"
00"
1/"
1D
1-"
0%"
0{!
1s!
1o!
0g!
1[!
1W!
0O!
0K!
0G!
1C!
0?!
0;!
07!
13!
1+!
1'!
0}
1y
0u
0q
0m
1j
1i
1h
1g
1f
1e
1d
1c
1b
1a
1`
1_
1^
1]
1\
1[
1Z
1Y
1X
1W
1V
1U
1T
1S
1R
1Q
1P
1O
1N
1M
1L
0*"
0""
0x!
0l!
0d!
0`!
0T!
00!
0$!
1z
0v
0r
0n
1,"
1("
1'"
0$"
1~!
1}!
0z!
1v!
1r!
1n!
1j!
0i!
0f!
1b!
1^!
1Z!
1V!
1R!
0Q!
0N!
1M!
0J!
0I!
0F!
1B!
0A!
0>!
1=!
0:!
09!
06!
12!
1.!
1*!
1&!
1"!
0!!
0|
1{
0x
1t
1p
0%
0'
0)
0,
0.
0/
02
0;
0>
1@
0A
0B
0C
1."
1*"
0+"
0("
0&"
1""
0#"
0~!
0|!
1x!
1t!
1p!
1l!
1m!
0j!
0h!
1d!
1`!
1\!
1X!
1T!
1U!
0R!
0P!
1N!
0L!
1J!
0H!
1D!
1E!
0B!
0@!
1>!
0<!
1:!
08!
14!
10!
1,!
1(!
1$!
1%!
0"!
0~
1|
0z
1v
1r
0,"
0*"
1$"
0""
0q!
0n!
0l!
0Y!
0V!
0T!
1P!
1L!
1F!
0D!
1@!
1<!
0)!
0&!
0$!
1~
1$
1%
0&
1'
0(
1)
1*
1+
1,
0-
1.
1/
10
11
12
03
04
05
16
07
08
09
1:
1;
1<
1=
1>
0?
0@
1A
1B
0."
1&"
1u!
0r!
0p!
1]!
0Z!
0X!
1H!
1-!
0*!
0(!
0%
0'
0,
02
13
14
06
17
18
0>
1?
0y!
0v!
0t!
0a!
0^!
0\!
01!
0.!
0,!
0$
1&
0+
01
15
0=
1z!
0x!
1e!
0b!
0`!
15!
02!
00!
0*
00
0<
1|!
1f!
0d!
16!
04!
0)
0/
0;
1h!
18!
1(
0.
0:
1-
19
#250000
b101 #
11"
0D
0-"
0)"
0!"
0w!
0s!
0o!
0k!
1g!
0c!
0_!
0[!
0W!
0S!
1O!
1G!
0C!
1?!
17!
03!
0/!
0+!
0'!
0#!
1}
0y
1u
1q
0j
0h
0f
0d
0c
0^
0]
0Z
0X
0V
0T
0R
0Q
0N
0K
1,"
0$"
0z!
0u!
1r!
1q!
1n!
0]!
1Z!
1Y!
1V!
0J!
0E!
1B!
0:!
05!
12!
0-!
1*!
1)!
1&!
0{
1x
1o
1l
1."
0&"
0|!
1y!
1v!
1t!
0r!
1p!
1a!
1^!
1\!
0Z!
1X!
0L!
0F!
1D!
0<!
06!
14!
11!
1.!
1,!
0*!
1(!
0|
1z
0p
1n
0}!
1z!
1x!
0t!
0e!
1b!
1`!
0\!
0H!
08!
02!
10!
0,!
0~
0r
1$
0&
0(
1*
1+
10
11
04
16
08
1:
1<
1=
1@
1C
1#"
1~!
1|!
0f!
1d!
04!
1)
0*
1/
00
05
09
1;
0<
0?
0B
0'"
1$"
1""
0h!
1(
1.
0:
1+"
1("
1&"
1'
0-
0,"
1*"
1&
0."
1%
0$
#300000
b111 #
b110 #
01"
10"
1D
1)"
1%"
1!"
1{!
1w!
1k!
0g!
1c!
1_!
1S!
0O!
1K!
0G!
0?!
1;!
07!
1/!
1#!
0}
0u
0q
1m
1k
1j
0i
1h
0g
1f
0e
1d
1c
0b
0a
0`
0_
1^
1]
0\
0[
1Z
0Y
1X
0W
1V
0U
1T
0S
1R
1Q
0P
0O
1N
0M
0L
1K
0o
1,"
0("
1'"
0$"
0~!
1}!
0z!
0v!
1r!
0q!
0n!
0m!
1j!
1i!
1f!
0b!
0^!
1Z!
0Y!
0V!
0U!
1R!
0N!
1J!
1I!
1F!
1E!
0B!
0>!
1:!
19!
16!
12!
0.!
1*!
0)!
0&!
0%!
1"!
1!!
1|
1{
0x
0t
0s
1p
1s
0p
1."
0*"
1("
0&"
0""
1~!
0|!
0x!
1t!
1u!
0r!
0p!
1q!
1n!
1l!
0j!
1h!
0d!
0`!
1\!
1]!
0Z!
0X!
1Y!
1V!
1T!
0P!
1L!
0J!
1H!
0I!
0F!
0D!
0@!
1<!
0:!
18!
14!
00!
1,!
1-!
0*!
0(!
1)!
1&!
1$!
0"!
1~
0!!
0|
0z
0v
1w
1t
1r
0w
0t
0r
1*"
1""
1v!
0t!
0u!
1r!
1p!
0l!
1^!
0\!
0]!
1Z!
1X!
0L!
1J!
0H!
0<!
1.!
0,!
0-!
1*!
1(!
0$!
1"!
0~
0{
1x
1v
1$
0%
0&
0'
0(
0)
1*
0+
1,
1-
0.
0/
10
01
12
03
14
15
06
07
18
19
1:
0;
1<
0=
1>
1?
0@
0A
1B
1{
0x
0v
1x!
0v!
1t!
1`!
0^!
1\!
1L!
10!
0.!
1,!
1$!
1!!
1|
1z
0B
1%
1'
0*
1+
0,
00
11
04
05
08
0<
1=
0>
0?
1A
0!!
0|
0z
0x!
0`!
00!
0"!
1~
0A
1)
1*
1/
10
14
1;
1<
1>
1@
1"!
0~
0$!
0@
0)
0/
0;
1?
1$!
0?
0>
1>
#350000
b111 #
11"
0D
1g!
1O!
1G!
1?!
17!
1}
1u
1q
0k
0j
0h
0f
0d
0c
0^
0]
0Z
0X
0V
0T
0R
0Q
0N
0l
0,"
0'"
1$"
0}!
1z!
0r!
0n!
0Z!
0V!
0J!
0E!
1B!
0=!
1:!
02!
0*!
0&!
0{
1x
0n
0."
0("
1&"
0~!
1|!
0t!
0p!
0\!
0X!
0L!
1I!
1F!
1D!
1A!
1>!
1<!
04!
0,!
0(!
1!!
1|
1z
0*"
0""
0M!
1J!
1H!
0B!
1@!
0"!
1~
0C
0$
1&
1(
0*
0+
00
01
04
16
18
0:
0<
0=
1@
1Q!
1N!
1L!
0D!
0$!
0%
0'
15
17
1?
0R!
1P!
14
06
0>
0T!
13
02
#400000
b11 #
b1 #
b0 #
01"
00"
0/"
1D
1-"
0%"
0{!
1s!
1o!
0g!
1[!
1W!
0O!
0K!
0G!
1C!
0?!
0;!
07!
13!
1+!
1'!
0}
1y
0u
0q
0m
1j
1i
1h
1g
1f
1e
1d
1c
1b
1a
1`
1_
1^
1]
1\
1[
1Z
1Y
1X
1W
1V
1U
1T
1S
1R
1Q
1P
1O
1N
1M
1L
1*"
1""
1x!
1l!
1d!
1`!
1T!
10!
1$!
0z
1v
1r
1n
1."
0&"
0|!
1t!
1p!
0h!
1\!
1X!
0P!
0L!
0H!
1D!
0@!
0<!
08!
14!
1,!
1(!
0~
1z
0v
0r
0n
1,"
1("
1'"
0$"
1~!
1}!
0z!
1v!
1r!
1n!
1j!
0i!
0f!
1b!
1^!
1Z!
1V!
1R!
0Q!
0N!
1M!
0J!
0I!
0F!
1B!
0A!
0>!
1=!
0:!
09!
06!
12!
1.!
1*!
1&!
1"!
0!!
0|
1{
0x
1t
1p
1%
1'
1)
1,
1.
1/
12
1;
1>
0@
1A
1B
1C
0+"
0("
0#"
0~!
1m!
0j!
1U!
0R!
1N!
1J!
1E!
0B!
1>!
1:!
1%!
0"!
1|
1$
0&
0(
1*
1+
0-
10
11
03
04
05
16
07
08
09
1:
1<
1=
0?
1@
0A
0B
0C
0,"
1$"
0q!
0n!
0Y!
0V!
1F!
0)!
0&!
1u!
0r!
1]!
0Z!
1-!
0*!
0y!
0v!
0a!
0^!
01!
0.!
1z!
1e!
0b!
15!
02!
1f!
16!
#450000
b1 #
11"
0D
0-"
0)"
0!"
0w!
0s!
0o!
0k!
1g!
0c!
0_!
0[!
0W!
0S!
1O!
1G!
0C!
1?!
17!
03!
0/!
0+!
0'!
0#!
1}
0y
1u
1q
0j
0h
0f
0d
0c
0^
0]
0Z
0X
0V
0T
0R
0Q
0N
0K
0."
0*"
0""
0x!
0t!
0p!
0l!
1h!
0d!
0`!
0\!
0X!
0T!
1P!
1H!
0D!
1@!
18!
04!
00!
0,!
0(!
0$!
1~
0z
1v
1r
1,"
0$"
0z!
0u!
1r!
1q!
1n!
0]!
1Z!
1Y!
1V!
0J!
0E!
1B!
0:!
05!
12!
0-!
1*!
1)!
1&!
0{
1x
1o
1l
1y!
1v!
0r!
1a!
1^!
0Z!
0F!
06!
11!
1.!
0*!
0|
0p
0$
0%
0'
0)
0*
0+
0,
1-
0.
0/
00
01
02
13
15
06
17
19
0:
0;
0<
0=
0>
1?
0@
1A
1B
0}!
1z!
0e!
1b!
02!
1#"
1~!
0f!
0'"
1$"
1+"
1("
0,"
#500000
b11 #
b10 #
01"
10"
1D
1)"
1%"
1!"
1{!
1w!
1k!
0g!
1c!
1_!
1S!
0O!
1K!
0G!
0?!
1;!
07!
1/!
1#!
0}
0u
0q
1m
1k
1j
0i
1h
0g
1f
0e
1d
1c
0b
0a
0`
0_
1^
1]
0\
0[
1Z
0Y
1X
0W
1V
0U
1T
0S
1R
1Q
0P
0O
1N
0M
0L
1K
1*"
1&"
1""
1|!
1x!
1l!
0h!
1d!
1`!
1T!
0P!
1L!
0H!
0@!
1<!
08!
10!
1$!
0~
0v
0r
1n
0o
1,"
0("
1'"
0$"
0~!
1}!
0z!
0v!
1r!
0q!
0n!
0m!
1j!
1i!
1f!
0b!
0^!
1Z!
0Y!
0V!
0U!
1R!
0N!
1J!
1I!
1F!
1E!
0B!
0>!
1:!
19!
16!
12!
0.!
1*!
0)!
0&!
0%!
1"!
1!!
1|
1{
0x
0t
0s
1p
1s
0p
1("
1~!
1u!
0r!
1q!
1n!
0j!
1]!
0Z!
1Y!
1V!
0J!
0I!
0F!
0:!
1-!
0*!
1)!
1&!
0"!
0!!
0|
1w
1t
1%
1&
1'
1(
1)
1,
0-
1.
1/
12
03
14
05
07
18
09
1;
1>
0?
0A
0B
1C
0w
0t
1v!
0u!
1r!
1^!
0]!
1Z!
1J!
1.!
0-!
1*!
1"!
0{
1x
1{
0x
0v!
0^!
0.!
1!!
1|
0!!
0|
0"!
1"!
#550000
b11 #
11"
0D
1g!
1O!
1G!
1?!
17!
1}
1u
1q
0k
0j
0h
0f
0d
0c
0^
0]
0Z
0X
0V
0T
0R
0Q
0N
1h!
1P!
1H!
1@!
18!
1~
1v
1r
0l
0,"
0'"
1$"
0}!
1z!
0r!
0n!
0Z!
0V!
0J!
0E!
1B!
0=!
1:!
02!
0*!
0&!
0{
1x
0("
0~!
1I!
1F!
1A!
1>!
1!!
1|
1-
13
15
17
19
1?
1A
1B
0M!
1J!
0B!
0"!
1Q!
1N!
0R!
#600000
b111 #
b101 #
b100 #
01"
00"
1/"
1D
1-"
0%"
0{!
1s!
1o!
0g!
1[!
1W!
0O!
0K!
0G!
1C!
0?!
0;!
07!
13!
1+!
1'!
0}
1y
0u
0q
0m
1j
1i
1h
1g
1f
1e
1d
1c
1b
1a
1`
1_
1^
1]
1\
1[
1Z
1Y
1X
1W
1V
1U
1T
1S
1R
1Q
1P
1O
1N
1M
1L
0*"
0""
0x!
0l!
0d!
0`!
0T!
00!
0$!
1z
0v
0r
0n
1,"
1("
1'"
0$"
1~!
1}!
0z!
1v!
1r!
1n!
1j!
0i!
0f!
1b!
1^!
1Z!
1V!
1R!
0Q!
0N!
1M!
0J!
0I!
0F!
1B!
0A!
0>!
1=!
0:!
09!
06!
12!
1.!
1*!
1&!
1"!
0!!
0|
1{
0x
1t
1p
0%
0'
0)
0,
0.
0/
02
0;
0>
1@
0A
0B
0C
1."
1*"
0+"
0("
0&"
1""
0#"
0~!
0|!
1x!
1t!
1p!
1l!
1m!
0j!
0h!
1d!
1`!
1\!
1X!
1T!
1U!
0R!
0P!
1N!
0L!
1J!
0H!
1D!
1E!
0B!
0@!
1>!
0<!
1:!
08!
14!
10!
1,!
1(!
1$!
1%!
0"!
0~
1|
0z
1v
1r
0,"
0*"
1$"
0""
0q!
0n!
0l!
0Y!
0V!
0T!
1P!
1L!
1F!
0D!
1@!
1<!
0)!
0&!
0$!
1~
1$
1%
0&
1'
0(
1)
1*
1+
1,
0-
1.
1/
10
11
12
03
04
05
16
07
08
09
1:
1;
1<
1=
1>
0?
0@
1A
1B
0."
1&"
1u!
0r!
0p!
1]!
0Z!
0X!
1H!
1-!
0*!
0(!
0%
0'
0,
02
13
14
06
17
18
0>
1?
0y!
0v!
0t!
0a!
0^!
0\!
01!
0.!
0,!
0$
1&
0+
01
15
0=
1z!
0x!
1e!
0b!
0`!
15!
02!
00!
0*
00
0<
1|!
1f!
0d!
16!
04!
0)
0/
0;
1h!
18!
1(
0.
0:
1-
19
#650000
b101 #
11"
0D
0-"
0)"
0!"
0w!
0s!
0o!
0k!
1g!
0c!
0_!
0[!
0W!
0S!
1O!
1G!
0C!
1?!
17!
03!
0/!
0+!
0'!
0#!
1}
0y
1u
1q
0j
0h
0f
0d
0c
0^
0]
0Z
0X
0V
0T
0R
0Q
0N
0K
1,"
0$"
0z!
0u!
1r!
1q!
1n!
0]!
1Z!
1Y!
1V!
0J!
0E!
1B!
0:!
05!
12!
0-!
1*!
1)!
1&!
0{
1x
1o
1l
1."
0&"
0|!
1y!
1v!
1t!
0r!
1p!
1a!
1^!
1\!
0Z!
1X!
0L!
0F!
1D!
0<!
06!
14!
11!
1.!
1,!
0*!
1(!
0|
1z
0p
1n
0}!
1z!
1x!
0t!
0e!
1b!
1`!
0\!
0H!
08!
02!
10!
0,!
0~
0r
1$
0&
0(
1*
1+
10
11
04
16
08
1:
1<
1=
1@
1C
1#"
1~!
1|!
0f!
1d!
04!
1)
0*
1/
00
05
09
1;
0<
0?
0B
0'"
1$"
1""
0h!
1(
1.
0:
1+"
1("
1&"
1'
0-
0,"
1*"
1&
0."
1%
0$
