TH/Lab1_CE221/simulation/qsim/Lab1_CE221.msim.vcd
$comment
	File created using the following command:
		vcd file Lab1_CE221.msim.vcd -direction
$end
$date
	Tue Oct 11 14:38:10 2022
$end
$version
	ModelSim Version 10.1d
$end
$timescale
	1ps
$end
$scope module Lab1_CE221_vlg_vec_tst $end
$var reg 4 ! in [3:0] $end
$var wire 1 " hex0 [6] $end
$var wire 1 # hex0 [5] $end
$var wire 1 $ hex0 [4] $end
$var wire 1 % hex0 [3] $end
$var wire 1 & hex0 [2] $end
$var wire 1 ' hex0 [1] $end
$var wire 1 ( hex0 [0] $end
$var wire 1 ) hex1 [6] $end
$var wire 1 * hex1 [5] $end
$var wire 1 + hex1 [4] $end
$var wire 1 , hex1 [3] $end
$var wire 1 - hex1 [2] $end
$var wire 1 . hex1 [1] $end
$var wire 1 / hex1 [0] $end
$var wire 1 0 sampler $end
$scope module i1 $end
$var wire 1 1 gnd $end
$var wire 1 2 vcc $end
$var wire 1 3 unknown $end
$var tri1 1 4 devclrn $end
$var tri1 1 5 devpor $end
$var tri1 1 6 devoe $end
$var wire 1 7 inst|seg0|WideOr0~0_combout $end
$var wire 1 8 inst|seg0|WideOr1~0_combout $end
$var wire 1 9 inst|seg0|WideOr2~0_combout $end
$var wire 1 : inst|seg0|WideOr3~0_combout $end
$var wire 1 ; inst|seg0|WideOr4~0_combout $end
$var wire 1 < inst|seg0|WideOr5~0_combout $end
$var wire 1 = inst|seg0|WideOr6~0_combout $end
$var wire 1 > inst|LessThan0~0_combout $end
$var wire 1 ? in~combout [3] $end
$var wire 1 @ in~combout [2] $end
$var wire 1 A in~combout [1] $end
$var wire 1 B in~combout [0] $end
$upscope $end
$upscope $end
$enddefinitions $end
#0
$dumpvars
b0 !
1(
0'
0&
0%
0$
0#
0"
1/
0.
0-
0,
0+
0*
0)
x0
01
12
x3
14
15
16
07
08
09
0:
0;
0<
0=
0>
0B
0A
0@
0?
$end
#50000
b1 !
1B
00
1<
1;
1:
17
1'
1&
1%
1"
#100000
b11 !
b10 !
0B
1A
10
1=
0;
0:
19
07
0&
0%
1$
0"
0(
#150000
b11 !
1B
00
1;
09
1&
0$
#200000
b111 !
b101 !
b100 !
0B
0A
1@
10
0<
1:
17
0'
1%
1"
#250000
b101 !
1B
00
0:
18
07
0%
1#
0"
#300000
b111 !
b110 !
0B
1A
10
0;
0&
#350000
b111 !
1B
00
0=
1<
1;
1:
08
1'
1&
1%
0#
1(
#400000
b1111 !
b1011 !
b1001 !
b1000 !
0B
0A
0@
1?
10
1=
0<
0;
0:
0'
0&
0%
0(
#450000
b1001 !
1B
00
1;
1&
#500000
b1011 !
b1010 !
0B
1A
10
0=
0;
1>
0&
1.
1-
1,
1)
1(
#550000
b1011 !
1B
00
1<
1;
1:
17
1'
1&
1%
1"
#600000
b1111 !
b1101 !
b1100 !
0B
0A
1@
10
1=
0;
0:
19
07
0&
0%
1$
0"
0(
#650000
b1101 !
1B
00
1;
09
1&
0$
#700000
b1111 !
b1110 !
0B
1A
10
0<
1:
17
0'
1%
1"
#750000
b1111 !
1B
00
0:
18
07
0%
1#
0"
#800000
b111 !
b11 !
b1 !
b0 !
0B
0A
0@
0?
10
0=
0;
08
0>
0&
0#
0.
0-
0,
0)
1(
#850000
b1 !
1B
00
1<
1;
1:
17
1'
1&
1%
1"
#900000
b11 !
b10 !
0B
1A
10
1=
0;
0:
19
07
0&
0%
1$
0"
0(
#950000
b11 !
1B
00
1;
09
1&
0$
