LT/Lnx/simulation/qsim/lnx.msim.vcd
$comment
	File created using the following command:
		vcd file lnx.msim.vcd -direction
$end
$date
	Tue Nov 29 20:40:04 2022
$end
$version
	ModelSim Version 10.1d
$end
$timescale
	1ps
$end
$scope module MUL_vlg_vec_tst $end
$var reg 16 ! A [15:0] $end
$var reg 16 " B [15:0] $end
$var reg 1 # CLK $end
$var reg 1 $ LOAD $end
$var reg 1 % RESET $end
$var wire 1 & Ready $end
$var wire 1 ' Wait $end
$var wire 1 ( result [31] $end
$var wire 1 ) result [30] $end
$var wire 1 * result [29] $end
$var wire 1 + result [28] $end
$var wire 1 , result [27] $end
$var wire 1 - result [26] $end
$var wire 1 . result [25] $end
$var wire 1 / result [24] $end
$var wire 1 0 result [23] $end
$var wire 1 1 result [22] $end
$var wire 1 2 result [21] $end
$var wire 1 3 result [20] $end
$var wire 1 4 result [19] $end
$var wire 1 5 result [18] $end
$var wire 1 6 result [17] $end
$var wire 1 7 result [16] $end
$var wire 1 8 result [15] $end
$var wire 1 9 result [14] $end
$var wire 1 : result [13] $end
$var wire 1 ; result [12] $end
$var wire 1 < result [11] $end
$var wire 1 = result [10] $end
$var wire 1 > result [9] $end
$var wire 1 ? result [8] $end
$var wire 1 @ result [7] $end
$var wire 1 A result [6] $end
$var wire 1 B result [5] $end
$var wire 1 C result [4] $end
$var wire 1 D result [3] $end
$var wire 1 E result [2] $end
$var wire 1 F result [1] $end
$var wire 1 G result [0] $end
$var wire 1 H sampler $end
$scope module i1 $end
$var wire 1 I gnd $end
$var wire 1 J vcc $end
$var wire 1 K unknown $end
$var tri1 1 L devclrn $end
$var tri1 1 M devpor $end
$var tri1 1 N devoe $end
$var wire 1 O B_tri[8]~6_combout $end
$var wire 1 P Row0|and15~combout $end
$var wire 1 Q Row0|and31~combout $end
$var wire 1 R CLK~combout $end
$var wire 1 S B_tri[8]~7_combout $end
$var wire 1 T B_tri[7]~27_combout $end
$var wire 1 U B_tri[7]~28_combout $end
$var wire 1 V RESET~combout $end
$var wire 1 W LOAD~combout $end
$var wire 1 X regB|REG0|reg7|reg0|Q~regout $end
$var wire 1 Y B_tri[2]~15_combout $end
$var wire 1 Z B_tri[14]~8_combout $end
$var wire 1 [ B_tri[2]~19_combout $end
$var wire 1 \ B_tri[2]~17_combout $end
$var wire 1 ] regB|REG0|reg2|reg0|Q~regout $end
$var wire 1 ^ B_tri[2]~16_combout $end
$var wire 1 _ B_tri[3]~22_combout $end
$var wire 1 ` regB|REG0|reg3|reg0|Q~regout $end
$var wire 1 a B_tri[4]~20_combout $end
$var wire 1 b B_tri[4]~21_combout $end
$var wire 1 c regB|REG0|reg4|reg0|Q~regout $end
$var wire 1 d B_tri[5]~2_combout $end
$var wire 1 e B_tri[5]~18_combout $end
$var wire 1 f regB|REG0|reg5|reg0|Q~regout $end
$var wire 1 g B_tri[1]~29_combout $end
$var wire 1 h B_tri[1]~30_combout $end
$var wire 1 i regB|REG0|reg1|reg0|Q~regout $end
$var wire 1 j B_tri[14]~31_combout $end
$var wire 1 k B_tri[14]~32_combout $end
$var wire 1 l regB|REG1|reg6|reg0|Q~regout $end
$var wire 1 m B_tri[9]~11_combout $end
$var wire 1 n B_tri[11]~38_combout $end
$var wire 1 o regB|REG1|reg3|reg0|Q~regout $end
$var wire 1 p B_tri[12]~35_combout $end
$var wire 1 q B_tri[12]~36_combout $end
$var wire 1 r regB|REG1|reg4|reg0|Q~regout $end
$var wire 1 s B_tri[13]~33_combout $end
$var wire 1 t B_tri[13]~34_combout $end
$var wire 1 u regB|REG1|reg5|reg0|Q~regout $end
$var wire 1 v B_tri[10]~37_combout $end
$var wire 1 w B_tri[10]~39_combout $end
$var wire 1 x regB|REG1|reg2|reg0|Q~regout $end
$var wire 1 y B_tri[9]~12_combout $end
$var wire 1 z B_tri[9]~13_combout $end
$var wire 1 { regB|REG1|reg1|reg0|Q~regout $end
$var wire 1 | B_tri[14]~14_combout $end
$var wire 1 } B_tri[6]~23_combout $end
$var wire 1 ~ B_tri[6]~24_combout $end
$var wire 1 !! regB|REG0|reg6|reg0|Q~regout $end
$var wire 1 "! B_tri[14]~3_combout $end
$var wire 1 #! B_tri[15]~40_combout $end
$var wire 1 $! regB|REG1|reg7|reg0|Q~regout $end
$var wire 1 %! B_tri[0]~25_combout $end
$var wire 1 &! B_tri[0]~26_combout $end
$var wire 1 '! regB|REG0|reg0|reg0|Q~regout $end
$var wire 1 (! B_tri[0]~4_combout $end
$var wire 1 )! B_tri[8]~5_combout $end
$var wire 1 *! B_tri[8]~9_combout $end
$var wire 1 +! B_tri[8]~10_combout $end
$var wire 1 ,! regB|REG1|reg0|reg0|Q~regout $end
$var wire 1 -! getWait|OUT~combout $end
$var wire 1 .! getReady|OUT~combout $end
$var wire 1 /! A_tri[0]~33_combout $end
$var wire 1 0! regA|REG0|REG0|reg0|reg0|Q~regout $end
$var wire 1 1! temp_tri[0]~0_combout $end
$var wire 1 2! regTemp|REG0|REG0|reg0|reg0|Q~regout $end
$var wire 1 3! CAS80|CAS0|CAS0|CAS0|FA0|xor1~combout $end
$var wire 1 4! A_tri[1]~2_combout $end
$var wire 1 5! regA|REG0|REG0|reg1|reg0|Q~regout $end
$var wire 1 6! temp_tri[1]~1_combout $end
$var wire 1 7! regTemp|REG0|REG0|reg1|reg0|Q~regout $end
$var wire 1 8! CAS80|CAS0|CAS0|CAS0|FA0|and2~combout $end
$var wire 1 9! CAS80|CAS0|CAS0|CAS1|FA0|xor2~combout $end
$var wire 1 :! A_tri[2]~3_combout $end
$var wire 1 ;! regA|REG0|REG0|reg2|reg0|Q~regout $end
$var wire 1 <! temp_tri[2]~2_combout $end
$var wire 1 =! regTemp|REG0|REG0|reg2|reg0|Q~regout $end
$var wire 1 >! CAS80|CAS0|CAS0|CAS1|FA0|or1~0_combout $end
$var wire 1 ?! CAS80|CAS0|CAS0|CAS2|FA0|xor2~0_combout $end
$var wire 1 @! A_tri[3]~4_combout $end
$var wire 1 A! regA|REG0|REG0|reg3|reg0|Q~regout $end
$var wire 1 B! temp_tri[3]~3_combout $end
$var wire 1 C! regTemp|REG0|REG0|reg3|reg0|Q~regout $end
$var wire 1 D! CAS80|CAS0|CAS0|CAS2|FA0|or1~0_combout $end
$var wire 1 E! CAS80|CAS0|CAS0|CAS3|FA0|xor2~0_combout $end
$var wire 1 F! A_tri[4]~5_combout $end
$var wire 1 G! regA|REG0|REG0|reg4|reg0|Q~regout $end
$var wire 1 H! temp_tri[4]~4_combout $end
$var wire 1 I! regTemp|REG0|REG0|reg4|reg0|Q~regout $end
$var wire 1 J! CAS80|CAS0|CAS0|CAS3|FA0|or1~0_combout $end
$var wire 1 K! CAS80|CAS0|CAS0|CAS4|FA0|xor2~0_combout $end
$var wire 1 L! A_tri[5]~6_combout $end
$var wire 1 M! regA|REG0|REG0|reg5|reg0|Q~regout $end
$var wire 1 N! temp_tri[5]~5_combout $end
$var wire 1 O! regTemp|REG0|REG0|reg5|reg0|Q~regout $end
$var wire 1 P! CAS80|CAS0|CAS0|CAS4|FA0|or1~0_combout $end
$var wire 1 Q! CAS80|CAS0|CAS0|CAS5|FA0|xor2~0_combout $end
$var wire 1 R! A_tri[6]~7_combout $end
$var wire 1 S! regA|REG0|REG0|reg6|reg0|Q~regout $end
$var wire 1 T! temp_tri[6]~6_combout $end
$var wire 1 U! regTemp|REG0|REG0|reg6|reg0|Q~regout $end
$var wire 1 V! CAS80|CAS0|CAS0|CAS5|FA0|or1~0_combout $end
$var wire 1 W! CAS80|CAS0|CAS0|CAS6|FA0|xor2~0_combout $end
$var wire 1 X! A_tri[7]~8_combout $end
$var wire 1 Y! regA|REG0|REG0|reg7|reg0|Q~regout $end
$var wire 1 Z! temp_tri[7]~7_combout $end
$var wire 1 [! regTemp|REG0|REG0|reg7|reg0|Q~regout $end
$var wire 1 \! CAS80|CAS0|CAS0|CAS6|FA0|or1~0_combout $end
$var wire 1 ]! CAS80|CAS0|CAS0|CAS7|FA0|xor2~0_combout $end
$var wire 1 ^! A_tri[8]~9_combout $end
$var wire 1 _! regA|REG0|REG1|reg0|reg0|Q~regout $end
$var wire 1 `! temp_tri[8]~8_combout $end
$var wire 1 a! regTemp|REG0|REG1|reg0|reg0|Q~regout $end
$var wire 1 b! CAS80|CAS0|CAS0|CAS7|FA0|or1~0_combout $end
$var wire 1 c! CAS80|CAS0|CAS1|CAS0|FA0|xor2~0_combout $end
$var wire 1 d! A_tri[9]~10_combout $end
$var wire 1 e! regA|REG0|REG1|reg1|reg0|Q~regout $end
$var wire 1 f! temp_tri[9]~9_combout $end
$var wire 1 g! regTemp|REG0|REG1|reg1|reg0|Q~regout $end
$var wire 1 h! CAS80|CAS0|CAS1|CAS0|FA0|or1~0_combout $end
$var wire 1 i! CAS80|CAS0|CAS1|CAS1|FA0|xor2~0_combout $end
$var wire 1 j! A_tri[10]~11_combout $end
$var wire 1 k! regA|REG0|REG1|reg2|reg0|Q~regout $end
$var wire 1 l! temp_tri[10]~10_combout $end
$var wire 1 m! regTemp|REG0|REG1|reg2|reg0|Q~regout $end
$var wire 1 n! CAS80|CAS0|CAS1|CAS1|FA0|or1~0_combout $end
$var wire 1 o! CAS80|CAS0|CAS1|CAS2|FA0|xor2~0_combout $end
$var wire 1 p! A_tri[11]~12_combout $end
$var wire 1 q! regA|REG0|REG1|reg3|reg0|Q~regout $end
$var wire 1 r! temp_tri[11]~11_combout $end
$var wire 1 s! regTemp|REG0|REG1|reg3|reg0|Q~regout $end
$var wire 1 t! CAS80|CAS0|CAS1|CAS2|FA0|or1~0_combout $end
$var wire 1 u! CAS80|CAS0|CAS1|CAS3|FA0|xor2~0_combout $end
$var wire 1 v! A_tri[12]~13_combout $end
$var wire 1 w! regA|REG0|REG1|reg4|reg0|Q~regout $end
$var wire 1 x! temp_tri[12]~12_combout $end
$var wire 1 y! regTemp|REG0|REG1|reg4|reg0|Q~regout $end
$var wire 1 z! CAS80|CAS0|CAS1|CAS3|FA0|or1~0_combout $end
$var wire 1 {! CAS80|CAS0|CAS1|CAS4|FA0|xor2~0_combout $end
$var wire 1 |! A_tri[13]~14_combout $end
$var wire 1 }! regA|REG0|REG1|reg5|reg0|Q~regout $end
$var wire 1 ~! Row0|and13~combout $end
$var wire 1 !" CAS80|CAS0|CAS1|CAS4|FA0|or1~0_combout $end
$var wire 1 "" temp_tri[13]~13_combout $end
$var wire 1 #" regTemp|REG0|REG1|reg5|reg0|Q~regout $end
$var wire 1 $" CAS80|CAS0|CAS1|CAS5|FA0|xor2~0_combout $end
$var wire 1 %" A_tri[14]~15_combout $end
$var wire 1 &" regA|REG0|REG1|reg6|reg0|Q~regout $end
$var wire 1 '" Row0|and14~combout $end
$var wire 1 (" CAS80|CAS0|CAS1|CAS5|FA0|or1~0_combout $end
$var wire 1 )" temp_tri[14]~14_combout $end
$var wire 1 *" regTemp|REG0|REG1|reg6|reg0|Q~regout $end
$var wire 1 +" CAS80|CAS0|CAS1|CAS6|FA0|xor2~2_combout $end
$var wire 1 ," A_tri[15]~16_combout $end
$var wire 1 -" regA|REG0|REG1|reg7|reg0|Q~regout $end
$var wire 1 ." temp_tri[15]~15_combout $end
$var wire 1 /" temp_tri[15]~16_combout $end
$var wire 1 0" regTemp|REG0|REG1|reg7|reg0|Q~regout $end
$var wire 1 1" CAS80|CAS0|CAS1|CAS6|FA0|or1~0_combout $end
$var wire 1 2" CAS80|CAS0|CAS1|CAS7|FA0|xor2~2_combout $end
$var wire 1 3" A_tri[16]~17_combout $end
$var wire 1 4" regA|REG1|REG0|reg0|reg0|Q~regout $end
$var wire 1 5" temp_tri[16]~17_combout $end
$var wire 1 6" regTemp|REG1|REG0|reg0|reg0|Q~regout $end
$var wire 1 7" CAS80|CAS1|CAS0|CAS0|FA0|xor1~combout $end
$var wire 1 8" A_tri[17]~18_combout $end
$var wire 1 9" regA|REG1|REG0|reg1|reg0|Q~regout $end
$var wire 1 :" temp_tri[17]~18_combout $end
$var wire 1 ;" regTemp|REG1|REG0|reg1|reg0|Q~regout $end
$var wire 1 <" CAS80|CAS1|CAS0|CAS0|FA0|and2~combout $end
$var wire 1 =" CAS80|CAS1|CAS0|CAS1|FA0|xor2~combout $end
$var wire 1 >" A_tri[18]~19_combout $end
$var wire 1 ?" regA|REG1|REG0|reg2|reg0|Q~regout $end
$var wire 1 @" temp_tri[18]~19_combout $end
$var wire 1 A" regTemp|REG1|REG0|reg2|reg0|Q~regout $end
$var wire 1 B" CAS80|CAS1|CAS0|CAS1|FA0|or1~0_combout $end
$var wire 1 C" CAS80|CAS1|CAS0|CAS2|FA0|xor2~0_combout $end
$var wire 1 D" A_tri[19]~20_combout $end
$var wire 1 E" regA|REG1|REG0|reg3|reg0|Q~regout $end
$var wire 1 F" temp_tri[19]~20_combout $end
$var wire 1 G" regTemp|REG1|REG0|reg3|reg0|Q~regout $end
$var wire 1 H" CAS80|CAS1|CAS0|CAS2|FA0|or1~0_combout $end
$var wire 1 I" CAS80|CAS1|CAS0|CAS3|FA0|xor2~0_combout $end
$var wire 1 J" A_tri[20]~21_combout $end
$var wire 1 K" regA|REG1|REG0|reg4|reg0|Q~regout $end
$var wire 1 L" temp_tri[20]~21_combout $end
$var wire 1 M" regTemp|REG1|REG0|reg4|reg0|Q~regout $end
$var wire 1 N" CAS80|CAS1|CAS0|CAS3|FA0|or1~0_combout $end
$var wire 1 O" CAS80|CAS1|CAS0|CAS4|FA0|xor2~0_combout $end
$var wire 1 P" A_tri[21]~22_combout $end
$var wire 1 Q" regA|REG1|REG0|reg5|reg0|Q~regout $end
$var wire 1 R" temp_tri[21]~22_combout $end
$var wire 1 S" regTemp|REG1|REG0|reg5|reg0|Q~regout $end
$var wire 1 T" CAS80|CAS1|CAS0|CAS4|FA0|or1~0_combout $end
$var wire 1 U" CAS80|CAS1|CAS0|CAS5|FA0|xor2~0_combout $end
$var wire 1 V" A_tri[22]~23_combout $end
$var wire 1 W" regA|REG1|REG0|reg6|reg0|Q~regout $end
$var wire 1 X" temp_tri[22]~23_combout $end
$var wire 1 Y" regTemp|REG1|REG0|reg6|reg0|Q~regout $end
$var wire 1 Z" CAS80|CAS1|CAS0|CAS5|FA0|or1~0_combout $end
$var wire 1 [" CAS80|CAS1|CAS0|CAS6|FA0|xor2~0_combout $end
$var wire 1 \" A_tri[23]~24_combout $end
$var wire 1 ]" regA|REG1|REG0|reg7|reg0|Q~regout $end
$var wire 1 ^" temp_tri[23]~24_combout $end
$var wire 1 _" regTemp|REG1|REG0|reg7|reg0|Q~regout $end
$var wire 1 `" CAS80|CAS1|CAS0|CAS6|FA0|or1~0_combout $end
$var wire 1 a" CAS80|CAS1|CAS0|CAS7|FA0|xor2~0_combout $end
$var wire 1 b" A_tri[24]~25_combout $end
$var wire 1 c" regA|REG1|REG1|reg0|reg0|Q~regout $end
$var wire 1 d" temp_tri[24]~25_combout $end
$var wire 1 e" regTemp|REG1|REG1|reg0|reg0|Q~regout $end
$var wire 1 f" CAS80|CAS1|CAS0|CAS7|FA0|or1~0_combout $end
$var wire 1 g" CAS80|CAS1|CAS1|CAS0|FA0|xor2~0_combout $end
$var wire 1 h" A_tri[25]~26_combout $end
$var wire 1 i" regA|REG1|REG1|reg1|reg0|Q~regout $end
$var wire 1 j" temp_tri[25]~26_combout $end
$var wire 1 k" regTemp|REG1|REG1|reg1|reg0|Q~regout $end
$var wire 1 l" CAS80|CAS1|CAS1|CAS0|FA0|or1~0_combout $end
$var wire 1 m" CAS80|CAS1|CAS1|CAS1|FA0|xor2~0_combout $end
$var wire 1 n" A_tri[26]~27_combout $end
$var wire 1 o" regA|REG1|REG1|reg2|reg0|Q~regout $end
$var wire 1 p" temp_tri[26]~27_combout $end
$var wire 1 q" regTemp|REG1|REG1|reg2|reg0|Q~regout $end
$var wire 1 r" CAS80|CAS1|CAS1|CAS1|FA0|or1~0_combout $end
$var wire 1 s" CAS80|CAS1|CAS1|CAS2|FA0|xor2~0_combout $end
$var wire 1 t" A_tri[27]~28_combout $end
$var wire 1 u" regA|REG1|REG1|reg3|reg0|Q~regout $end
$var wire 1 v" temp_tri[27]~28_combout $end
$var wire 1 w" regTemp|REG1|REG1|reg3|reg0|Q~regout $end
$var wire 1 x" CAS80|CAS1|CAS1|CAS2|FA0|or1~0_combout $end
$var wire 1 y" CAS80|CAS1|CAS1|CAS3|FA0|xor2~0_combout $end
$var wire 1 z" A_tri[28]~29_combout $end
$var wire 1 {" regA|REG1|REG1|reg4|reg0|Q~regout $end
$var wire 1 |" temp_tri[28]~29_combout $end
$var wire 1 }" regTemp|REG1|REG1|reg4|reg0|Q~regout $end
$var wire 1 ~" CAS80|CAS1|CAS1|CAS3|FA0|or1~0_combout $end
$var wire 1 !# CAS80|CAS1|CAS1|CAS4|FA0|xor2~0_combout $end
$var wire 1 "# A_tri[29]~30_combout $end
$var wire 1 ## regA|REG1|REG1|reg5|reg0|Q~regout $end
$var wire 1 $# temp_tri[29]~30_combout $end
$var wire 1 %# regTemp|REG1|REG1|reg5|reg0|Q~regout $end
$var wire 1 &# CAS80|CAS1|CAS1|CAS4|FA0|or1~0_combout $end
$var wire 1 '# CAS80|CAS1|CAS1|CAS5|FA0|xor2~0_combout $end
$var wire 1 (# A_tri[30]~31_combout $end
$var wire 1 )# regA|REG1|REG1|reg6|reg0|Q~regout $end
$var wire 1 *# Row0|and30~combout $end
$var wire 1 +# CAS80|CAS1|CAS1|CAS5|FA0|or1~0_combout $end
$var wire 1 ,# temp_tri[30]~31_combout $end
$var wire 1 -# regTemp|REG1|REG1|reg6|reg0|Q~regout $end
$var wire 1 .# CAS80|CAS1|CAS1|CAS6|FA0|xor2~2_combout $end
$var wire 1 /# A_tri[31]~32_combout $end
$var wire 1 0# regA|REG1|REG1|reg7|reg0|Q~regout $end
$var wire 1 1# temp_tri[31]~32_combout $end
$var wire 1 2# temp_tri[31]~33_combout $end
$var wire 1 3# regTemp|REG1|REG1|reg7|reg0|Q~regout $end
$var wire 1 4# CAS80|CAS1|CAS1|CAS6|FA0|or1~0_combout $end
$var wire 1 5# CAS80|CAS1|CAS1|CAS7|FA0|xor2~2_combout $end
$var wire 1 6# B~combout [15] $end
$var wire 1 7# B~combout [14] $end
$var wire 1 8# B~combout [13] $end
$var wire 1 9# B~combout [12] $end
$var wire 1 :# B~combout [11] $end
$var wire 1 ;# B~combout [10] $end
$var wire 1 <# B~combout [9] $end
$var wire 1 =# B~combout [8] $end
$var wire 1 ># B~combout [7] $end
$var wire 1 ?# B~combout [6] $end
$var wire 1 @# B~combout [5] $end
$var wire 1 A# B~combout [4] $end
$var wire 1 B# B~combout [3] $end
$var wire 1 C# B~combout [2] $end
$var wire 1 D# B~combout [1] $end
$var wire 1 E# B~combout [0] $end
$var wire 1 F# A~combout [15] $end
$var wire 1 G# A~combout [14] $end
$var wire 1 H# A~combout [13] $end
$var wire 1 I# A~combout [12] $end
$var wire 1 J# A~combout [11] $end
$var wire 1 K# A~combout [10] $end
$var wire 1 L# A~combout [9] $end
$var wire 1 M# A~combout [8] $end
$var wire 1 N# A~combout [7] $end
$var wire 1 O# A~combout [6] $end
$var wire 1 P# A~combout [5] $end
$var wire 1 Q# A~combout [4] $end
$var wire 1 R# A~combout [3] $end
$var wire 1 S# A~combout [2] $end
$var wire 1 T# A~combout [1] $end
$var wire 1 U# A~combout [0] $end
$upscope $end
$upscope $end
$enddefinitions $end
#0
$dumpvars
b1010111000001 !
b1110101101101101 "
0#
0$
1%
0&
0'
0G
0F
0E
0D
0C
0B
0A
0@
0?
0>
0=
0<
0;
0:
09
08
07
06
05
04
03
02
01
00
0/
0.
0-
0,
0+
0*
0)
0(
xH
0I
1J
xK
1L
1M
1N
1O
0P
0Q
0R
1S
0T
0U
1V
0W
0X
1Y
1Z
1[
1\
0]
1^
1_
0`
0a
0b
0c
1d
1e
0f
0g
0h
0i
1j
1k
0l
1m
1n
0o
0p
0q
0r
1s
1t
0u
1v
0w
0x
1y
1z
0{
1|
1}
1~
0!!
1"!
1#!
0$!
1%!
1&!
0'!
1(!
1)!
1*!
1+!
0,!
0-!
0.!
1/!
00!
01!
02!
03!
04!
05!
06!
07!
08!
09!
0:!
0;!
0<!
0=!
0>!
0?!
0@!
0A!
0B!
0C!
0D!
0E!
0F!
0G!
0H!
0I!
0J!
0K!
0L!
0M!
0N!
0O!
0P!
0Q!
1R!
0S!
0T!
0U!
0V!
0W!
1X!
0Y!
0Z!
0[!
0\!
0]!
1^!
0_!
0`!
0a!
0b!
0c!
0d!
0e!
0f!
0g!
0h!
0i!
1j!
0k!
0l!
0m!
0n!
0o!
0p!
0q!
0r!
0s!
0t!
0u!
1v!
0w!
0x!
0y!
0z!
0{!
0|!
0}!
0~!
0!"
0""
0#"
0$"
0%"
0&"
0'"
0("
0)"
0*"
0+"
0,"
0-"
0."
0/"
00"
01"
02"
03"
04"
05"
06"
07"
08"
09"
0:"
0;"
0<"
0="
0>"
0?"
0@"
0A"
0B"
0C"
0D"
0E"
0F"
0G"
0H"
0I"
0J"
0K"
0L"
0M"
0N"
0O"
0P"
0Q"
0R"
0S"
0T"
0U"
0V"
0W"
0X"
0Y"
0Z"
0["
0\"
0]"
0^"
0_"
0`"
0a"
0b"
0c"
0d"
0e"
0f"
0g"
0h"
0i"
0j"
0k"
0l"
0m"
0n"
0o"
0p"
0q"
0r"
0s"
0t"
0u"
0v"
0w"
0x"
0y"
0z"
0{"
0|"
0}"
0~"
0!#
0"#
0##
0$#
0%#
0&#
0'#
0(#
0)#
0*#
0+#
0,#
0-#
0.#
0/#
00#
01#
02#
03#
04#
05#
1E#
0D#
1C#
1B#
0A#
1@#
1?#
0>#
1=#
1<#
0;#
1:#
09#
18#
17#
16#
1U#
0T#
0S#
0R#
0Q#
0P#
1O#
1N#
1M#
0L#
1K#
0J#
1I#
0H#
0G#
0F#
$end
#10000
1#
0%
1R
0V
0H
#20000
0#
0R
1H
#30000
1#
1R
0H
#40000
1$
0#
1W
0R
1H
#50000
1#
1R
0H
1w!
1k!
1_!
1Y!
1S!
10!
1,!
1'!
1$!
1!!
1{
1u
1o
1l
1f
1`
1]
1{!
1o!
1c!
1]!
1W!
13!
1-!
0*!
0|
0m
0Z
1U
0(!
0%!
1.!
0"!
1h
0^
0[
0y
0v
0s
1q
0O
1w
0n
0z
0d
1b
0_
1x!
1l!
1`!
1Z!
1T!
11!
0~
0j
0Y
1|!
0v!
1p!
0j!
1d!
0R!
14!
0/!
0#!
0&!
0)!
0}
0S
1;
1=
1?
1@
1A
1G
1'
1&
#60000
0#
0R
1H
#70000
1#
1R
0H
1}!
1y!
0w!
1q!
1m!
0k!
1e!
1a!
1[!
1U!
0S!
15!
12!
00!
0'!
0$!
0!!
0{
1x
1r
0o
1i
1c
0`
1X
1%"
0|!
1v!
0p!
1j!
0X!
1:!
04!
1(!
1%!
0k
0e
0+!
1z
0w
1n
1&!
1_
0\
1~
#80000
0#
0R
1H
#90000
1#
1R
0H
1&"
0}!
1w!
0q!
1k!
0Y!
1;!
05!
0,!
1'!
1!!
1{
0x
1o
0l
0f
1`
0]
1,"
1+"
1'"
0%"
1!"
1|!
0{!
0v!
1t!
1p!
0o!
0^!
1@!
1?!
0:!
0U
1i!
1h!
0c!
0(!
0%!
0h
1e
1+!
0z
0t
1w
0b
1\
1)"
1$"
1""
0x!
1u!
0l!
1<!
1f!
1n!
0i!
0`!
19
0;
0=
1E
1>
0?
1r!
1o!
0f!
1:
1<
0>
1l!
1=
#100000
b10111000001 !
b110111000001 !
b100111000001 !
b101111000001 !
b101101000001 !
b101100000001 !
b101100001001 !
b101100001101 !
b101100001111 !
b1100101101101101 "
b1101101101101101 "
b1101101111101101 "
b1101101111100101 "
b1101101111100001 "
b1101101111100011 "
b1101101111100010 "
0#
0E#
1D#
0C#
0B#
1>#
19#
08#
1T#
1S#
1R#
0O#
0N#
1L#
0K#
1J#
0I#
0R
1H
#110000
1#
1R
0H
1-"
1*"
0&"
1#"
1}!
0y!
0w!
1s!
1q!
0a!
0_!
1A!
1=!
0;!
1,!
0{
1x
0u
0i
1f
0c
1]
0X
13"
12"
1P
0)"
0,"
0'"
1("
0""
1%"
1~!
0!"
0|!
1z!
1v!
0h!
0d!
1F!
1E!
0@!
1U
0+!
1z
0q
0&!
1b
0_
1h
0~
1/"
11"
1."
0+"
0$"
1{!
0n!
1i!
1B!
18
1D
02"
0/"
1x!
0o!
1f!
09
0:
1;
1>
0l!
08
0=
#120000
0#
0R
1H
#130000
1#
1R
0H
14"
0-"
0*"
1&"
0#"
0}!
1y!
1w!
0m!
1g!
0e!
1G!
1C!
0A!
0,!
0'!
0!!
1{
0r
1i
1c
0`
1X
18"
03"
12"
0P
01"
0."
1+"
1)"
1,"
0("
1""
0%"
0~!
1!"
0{!
1|!
0t!
0j!
1L!
0F!
0U
0u!
1(!
0e
1+!
0n
1&!
1_
0\
1~
02"
0+"
0)"
1$"
0x!
0z!
1u!
0r!
18
19
0;
0<
0!"
1{!
1r!
08
09
1:
1<
0$"
0""
1x!
1;
0:
#140000
0#
0R
1H
#150000
1#
1R
0H
19"
04"
1-"
0&"
1}!
0k!
1M!
0G!
1,!
1'!
1!!
0o
0f
1`
0]
0X
1>"
1="
08"
13"
12"
1P
0,"
1%"
1$"
1~!
0p!
1R!
1Q!
0L!
1U
1!"
0{!
1z!
0u!
0(!
0h
1e
1y
0w
1p
1O
0b
1\
0~
1:"
1/"
1N!
1("
0$"
0x!
1{!
0r!
16
18
1:
1B
0;
0<
1+"
1)"
1x!
0:
1;
19
#160000
0#
0R
1H
#170000
1#
1R
0H
1?"
1;"
09"
14"
10"
0-"
1*"
1&"
0s!
0q!
1S!
1O!
0M!
0!!
0x
0i
1f
0c
1]
1X
1D"
1C"
0>"
18"
17"
15"
0/"
03"
0P
11"
1."
0)"
1,"
1'"
0z!
0v!
1\!
1X!
0W!
0R!
1h
0e
0z
1S
0&!
1b
0_
1~
1@"
02"
1)"
0{!
1b!
0]!
0T!
15
17
0A
0x!
1c!
0Z!
08
0;
0@
1`!
1?
#180000
0#
0R
1H
#190000
1#
1R
0H
1E"
1A"
0?"
19"
16"
04"
00"
1-"
0y!
0w!
1a!
0[!
1Y!
0U!
0S!
0'!
1!!
0{
1i
0f
1c
0`
1J"
0D"
1>"
08"
12"
1/"
13"
0!"
0|!
1h!
0c!
0b!
1]!
1^!
0\!
0X!
0+"
0("
0'"
1$"
0~!
1(!
1e
0+!
1&!
0b
1_
0\
0$"
1n!
0i!
0`!
0h!
1c!
1Z!
0]!
01"
0."
1+"
18
0?
1@
09
1:
1o!
0f!
0n!
1i!
1`!
0Z!
02"
0/"
0:
0>
1?
0@
19
1l!
0o!
1f!
1=
1>
08
0l!
0=
#200000
b100101100001111 !
b100101100101111 !
b100101100111111 !
b100101100111110 !
b1101111111100010 "
b1101110111100010 "
b1101110011100010 "
b1101110010100010 "
b1101110010000010 "
b101101100111110 !
b101001100111110 !
b101011100111110 !
b101010100111110 !
b101010110111110 !
b101010111111110 !
b101010111110110 !
b101010111110010 !
b101010111110000 !
b1111110010000010 "
b1111110000000010 "
b1111110000000110 "
b1111110000000100 "
0#
0D#
1C#
0@#
0?#
0>#
0=#
0<#
1;#
18#
0U#
0T#
0S#
0R#
1Q#
1P#
1O#
1N#
0L#
1K#
0J#
1I#
1G#
0R
1H
0y
1s
#210000
1#
1R
0H
1K"
0E"
1?"
09"
14"
0}!
1_!
0Y!
0,!
1'!
1f
0c
1`
0]
1P"
1O"
0J"
1H"
1D"
0C"
0>"
1<"
18"
07"
05"
0%"
1h!
1d!
0c!
0^!
1|
0U
12"
11"
1."
0+"
1'"
0(!
1P
1b
0_
1\
0h
1L"
1I"
0@"
1B"
0="
1n!
0i!
0`!
02"
0)"
13
05
07
0?
18
09
1F"
1C"
0:"
1o!
0f!
14
06
0>
08
1@"
1l!
15
1=
#220000
0#
0R
1H
#230000
1#
1R
0H
1Q"
1M"
0K"
1G"
1E"
0?"
0;"
19"
06"
0*"
0&"
1m!
0g!
1e!
0a!
0_!
0i
1c
0`
1]
0X
1V"
1U"
0P"
1N"
1J"
0D"
0C"
1>"
0<"
17"
15"
01"
0."
1)"
0,"
0'"
1t!
0o!
1j!
0h!
0d!
0&!
1_
0\
1h
0~
1Z
1R"
1T"
0O"
0@"
0B"
1="
12"
1/"
0)"
1u!
0l!
0n!
1i!
12
05
17
0=
1Z"
0U"
0L"
0H"
1C"
1:"
1r!
0t!
1o!
1f!
03
16
18
1<
1>
1["
0R"
0I"
1@"
0u!
1l!
02
15
1=
1X"
0F"
0r!
11
04
0<
#240000
0#
0R
1H
#250000
1#
1R
0H
1Y"
1W"
0Q"
0M"
1K"
0G"
0E"
1?"
1;"
16"
10"
0-"
1k!
1g!
0e!
0'!
0!!
1i
1`
0]
1`"
0["
1\"
0Z"
0V"
1U"
0T"
1O"
1P"
0N"
0J"
1D"
0/"
03"
0P
1p!
0j!
1(!
0h
0e
1&!
1\
1a"
0X"
0`"
1["
1R"
0U"
1L"
0O"
1/"
01
12
13
1^"
0a"
1X"
0R"
0L"
10
11
02
03
0^"
00
#260000
0#
0R
1H
#270000
1#
1R
0H
1]"
0W"
1Q"
0K"
1E"
04"
1q!
0k!
1'!
0i
0f
1]
1b"
1a"
0\"
1V"
1U"
0P"
1J"
1I"
08"
1v!
1u!
0p!
1H"
0C"
1B"
0="
0(!
0&!
1[
1Y
0b
1h
1^"
1R"
1F"
1r!
1N"
0I"
0@"
1C"
0:"
0[
0Y
10
12
14
1<
05
06
1O"
0F"
1@"
04
15
1L"
13
#280000
0#
0R
1H
