LT/Traffic/simulation/qsim/Traffic.msim.vcd
$comment
	File created using the following command:
		vcd file Traffic.msim.vcd -direction
$end
$date
	Thu Oct 20 14:02:37 2022
$end
$version
	ModelSim Version 10.1d
$end
$timescale
	1ps
$end
$scope module traffic_light_vlg_vec_tst $end
$var reg 1 ! C $end
$var reg 1 " clk $end
$var reg 1 # rst_n $end
$var wire 1 $ light_farm [2] $end
$var wire 1 % light_farm [1] $end
$var wire 1 & light_farm [0] $end
$var wire 1 ' light_highway [2] $end
$var wire 1 ( light_highway [1] $end
$var wire 1 ) light_highway [0] $end
$var wire 1 * sampler $end
$scope module i1 $end
$var wire 1 + gnd $end
$var wire 1 , vcc $end
$var wire 1 - unknown $end
$var tri1 1 . devclrn $end
$var tri1 1 / devpor $end
$var tri1 1 0 devoe $end
$var wire 1 1 count_delay[2]~32_combout $end
$var wire 1 2 count_delay[4]~38_combout $end
$var wire 1 3 count_delay[5]~40_combout $end
$var wire 1 4 count_delay[6]~42_combout $end
$var wire 1 5 count_delay[7]~44_combout $end
$var wire 1 6 count_delay[11]~52_combout $end
$var wire 1 7 count_delay[15]~60_combout $end
$var wire 1 8 count_delay[19]~68_combout $end
$var wire 1 9 count_delay[20]~70_combout $end
$var wire 1 : count_delay[21]~72_combout $end
$var wire 1 ; count_delay[22]~74_combout $end
$var wire 1 < count_delay[23]~76_combout $end
$var wire 1 = Add1~0_combout $end
$var wire 1 > Add1~2_combout $end
$var wire 1 ? Add1~4_combout $end
$var wire 1 @ Add1~12_combout $end
$var wire 1 A Add1~14_combout $end
$var wire 1 B Add1~16_combout $end
$var wire 1 C Add1~18_combout $end
$var wire 1 D Add1~20_combout $end
$var wire 1 E Add1~22_combout $end
$var wire 1 F Add1~24_combout $end
$var wire 1 G Add1~26_combout $end
$var wire 1 H Add1~28_combout $end
$var wire 1 I Add1~30_combout $end
$var wire 1 J Add1~32_combout $end
$var wire 1 K Add1~34_combout $end
$var wire 1 L Add1~36_combout $end
$var wire 1 M Add1~38_combout $end
$var wire 1 N Add1~40_combout $end
$var wire 1 O Add1~42_combout $end
$var wire 1 P Add1~48_combout $end
$var wire 1 Q Equal1~0_combout $end
$var wire 1 R Equal1~5_combout $end
$var wire 1 S Equal2~0_combout $end
$var wire 1 T Equal2~1_combout $end
$var wire 1 U Equal2~2_combout $end
$var wire 1 V Equal2~3_combout $end
$var wire 1 W Equal2~4_combout $end
$var wire 1 X clk~combout $end
$var wire 1 Y count_delay[0]~29 $end
$var wire 1 Z count_delay[1]~31 $end
$var wire 1 [ count_delay[2]~33 $end
$var wire 1 \ count_delay[3]~37 $end
$var wire 1 ] count_delay[4]~39 $end
$var wire 1 ^ count_delay[5]~41 $end
$var wire 1 _ count_delay[6]~43 $end
$var wire 1 ` count_delay[7]~45 $end
$var wire 1 a count_delay[8]~46_combout $end
$var wire 1 b count_delay[8]~47 $end
$var wire 1 c count_delay[9]~49 $end
$var wire 1 d count_delay[10]~51 $end
$var wire 1 e count_delay[11]~53 $end
$var wire 1 f count_delay[12]~55 $end
$var wire 1 g count_delay[13]~57 $end
$var wire 1 h count_delay[14]~59 $end
$var wire 1 i count_delay[15]~61 $end
$var wire 1 j count_delay[16]~63 $end
$var wire 1 k count_delay[17]~65 $end
$var wire 1 l count_delay[18]~67 $end
$var wire 1 m count_delay[19]~69 $end
$var wire 1 n count_delay[20]~71 $end
$var wire 1 o count_delay[21]~73 $end
$var wire 1 p count_delay[22]~75 $end
$var wire 1 q count_delay[23]~77 $end
$var wire 1 r count_delay[24]~78_combout $end
$var wire 1 s Add1~1 $end
$var wire 1 t Add1~3 $end
$var wire 1 u Add1~5 $end
$var wire 1 v Add1~7 $end
$var wire 1 w Add1~9 $end
$var wire 1 x Add1~10_combout $end
$var wire 1 y Add1~8_combout $end
$var wire 1 z Add1~6_combout $end
$var wire 1 { Equal2~5_combout $end
$var wire 1 | count~0_combout $end
$var wire 1 } Add1~11 $end
$var wire 1 ~ Add1~13 $end
$var wire 1 !! Add1~15 $end
$var wire 1 "! Add1~17 $end
$var wire 1 #! Add1~19 $end
$var wire 1 $! Add1~21 $end
$var wire 1 %! Add1~23 $end
$var wire 1 &! Add1~25 $end
$var wire 1 '! Add1~27 $end
$var wire 1 (! Add1~29 $end
$var wire 1 )! Add1~31 $end
$var wire 1 *! Add1~33 $end
$var wire 1 +! Add1~35 $end
$var wire 1 ,! Add1~37 $end
$var wire 1 -! Add1~39 $end
$var wire 1 .! Add1~41 $end
$var wire 1 /! Add1~43 $end
$var wire 1 0! Add1~44_combout $end
$var wire 1 1! Add1~45 $end
$var wire 1 2! Add1~46_combout $end
$var wire 1 3! Equal2~6_combout $end
$var wire 1 4! Add1~47 $end
$var wire 1 5! Add1~49 $end
$var wire 1 6! Add1~50_combout $end
$var wire 1 7! Add1~51 $end
$var wire 1 8! Add1~52_combout $end
$var wire 1 9! Add1~53 $end
$var wire 1 :! Add1~54_combout $end
$var wire 1 ;! Equal2~7_combout $end
$var wire 1 <! Equal2~8_combout $end
$var wire 1 =! count_delay[0]~35_combout $end
$var wire 1 >! count_delay[24]~79 $end
$var wire 1 ?! count_delay[25]~80_combout $end
$var wire 1 @! count_delay[25]~81 $end
$var wire 1 A! count_delay[26]~82_combout $end
$var wire 1 B! Equal1~6_combout $end
$var wire 1 C! count_delay[26]~83 $end
$var wire 1 D! count_delay[27]~84_combout $end
$var wire 1 E! Equal1~7_combout $end
$var wire 1 F! count_delay[0]~28_combout $end
$var wire 1 G! count_delay[3]~36_combout $end
$var wire 1 H! Equal1~8_combout $end
$var wire 1 I! Equal1~9_combout $end
$var wire 1 J! always2~1_combout $end
$var wire 1 K! delay3s1~regout $end
$var wire 1 L! Selector1~0_combout $end
$var wire 1 M! rst_n~combout $end
$var wire 1 N! state.HYEL_FRED~regout $end
$var wire 1 O! count_delay[1]~30_combout $end
$var wire 1 P! always2~2_combout $end
$var wire 1 Q! always2~3_combout $end
$var wire 1 R! delay10s~regout $end
$var wire 1 S! Selector3~0_combout $end
$var wire 1 T! state.HRED_FYEL~regout $end
$var wire 1 U! count_delay[0]~34_combout $end
$var wire 1 V! count_delay[9]~48_combout $end
$var wire 1 W! count_delay[10]~50_combout $end
$var wire 1 X! Equal1~1_combout $end
$var wire 1 Y! count_delay[12]~54_combout $end
$var wire 1 Z! count_delay[13]~56_combout $end
$var wire 1 [! count_delay[14]~58_combout $end
$var wire 1 \! Equal1~2_combout $end
$var wire 1 ]! count_delay[16]~62_combout $end
$var wire 1 ^! count_delay[17]~64_combout $end
$var wire 1 _! count_delay[18]~66_combout $end
$var wire 1 `! Equal1~3_combout $end
$var wire 1 a! Equal1~4_combout $end
$var wire 1 b! always2~0_combout $end
$var wire 1 c! delay3s2~regout $end
$var wire 1 d! C~combout $end
$var wire 1 e! Selector0~0_combout $end
$var wire 1 f! state.00~regout $end
$var wire 1 g! light_highway~0_combout $end
$var wire 1 h! Selector2~0_combout $end
$var wire 1 i! state.HRED_FGRE~regout $end
$var wire 1 j! count [27] $end
$var wire 1 k! count [26] $end
$var wire 1 l! count [25] $end
$var wire 1 m! count [24] $end
$var wire 1 n! count [23] $end
$var wire 1 o! count [22] $end
$var wire 1 p! count [21] $end
$var wire 1 q! count [20] $end
$var wire 1 r! count [19] $end
$var wire 1 s! count [18] $end
$var wire 1 t! count [17] $end
$var wire 1 u! count [16] $end
$var wire 1 v! count [15] $end
$var wire 1 w! count [14] $end
$var wire 1 x! count [13] $end
$var wire 1 y! count [12] $end
$var wire 1 z! count [11] $end
$var wire 1 {! count [10] $end
$var wire 1 |! count [9] $end
$var wire 1 }! count [8] $end
$var wire 1 ~! count [7] $end
$var wire 1 !" count [6] $end
$var wire 1 "" count [5] $end
$var wire 1 #" count [4] $end
$var wire 1 $" count [3] $end
$var wire 1 %" count [2] $end
$var wire 1 &" count [1] $end
$var wire 1 '" count [0] $end
$var wire 1 (" count_delay [27] $end
$var wire 1 )" count_delay [26] $end
$var wire 1 *" count_delay [25] $end
$var wire 1 +" count_delay [24] $end
$var wire 1 ," count_delay [23] $end
$var wire 1 -" count_delay [22] $end
$var wire 1 ." count_delay [21] $end
$var wire 1 /" count_delay [20] $end
$var wire 1 0" count_delay [19] $end
$var wire 1 1" count_delay [18] $end
$var wire 1 2" count_delay [17] $end
$var wire 1 3" count_delay [16] $end
$var wire 1 4" count_delay [15] $end
$var wire 1 5" count_delay [14] $end
$var wire 1 6" count_delay [13] $end
$var wire 1 7" count_delay [12] $end
$var wire 1 8" count_delay [11] $end
$var wire 1 9" count_delay [10] $end
$var wire 1 :" count_delay [9] $end
$var wire 1 ;" count_delay [8] $end
$var wire 1 <" count_delay [7] $end
$var wire 1 =" count_delay [6] $end
$var wire 1 >" count_delay [5] $end
$var wire 1 ?" count_delay [4] $end
$var wire 1 @" count_delay [3] $end
$var wire 1 A" count_delay [2] $end
$var wire 1 B" count_delay [1] $end
$var wire 1 C" count_delay [0] $end
$upscope $end
$upscope $end
$enddefinitions $end
#0
$dumpvars
1!
0"
0#
0&
0%
1$
1)
0(
0'
x*
0+
1,
x-
1.
1/
10
01
02
03
04
05
06
07
08
09
0:
0;
0<
1=
0>
0?
0@
0A
0B
0C
0D
0E
0F
0G
0H
0I
0J
0K
0L
0M
0N
0O
0P
1Q
1R
1S
1T
1U
1V
1W
0X
0Y
1Z
0[
1\
0]
1^
0_
1`
0a
0b
1c
0d
1e
0f
1g
0h
1i
0j
1k
0l
1m
0n
1o
0p
1q
0r
0s
1t
0u
1v
0w
0x
0y
0z
0{
0|
1}
0~
1!!
0"!
1#!
0$!
1%!
0&!
1'!
0(!
1)!
0*!
1+!
0,!
1-!
0.!
1/!
00!
01!
02!
03!
14!
05!
06!
17!
08!
09!
0:!
1;!
0<!
0=!
0>!
0?!
1@!
0A!
1B!
0C!
0D!
1E!
1F!
0G!
0H!
0I!
0J!
0K!
1L!
0M!
0N!
0O!
0P!
0Q!
0R!
0S!
0T!
0U!
0V!
0W!
1X!
0Y!
0Z!
0[!
1\!
0]!
0^!
0_!
1`!
1a!
0b!
0c!
1d!
1e!
0f!
1g!
0h!
0i!
0'"
0&"
0%"
0$"
0#"
0""
0!"
0~!
0}!
0|!
0{!
0z!
0y!
0x!
0w!
0v!
0u!
0t!
0s!
0r!
0q!
0p!
0o!
0n!
0m!
0l!
0k!
0j!
0C"
0B"
0A"
0@"
0?"
0>"
0="
0<"
0;"
0:"
09"
08"
07"
06"
05"
04"
03"
02"
01"
00"
0/"
0."
0-"
0,"
0+"
0*"
0)"
0("
$end
#5000
1"
0!
1X
0d!
0*
0e!
0L!
1'"
1{
1s
0=
1>
#10000
0"
1!
0X
1d!
1*
1e!
1L!
#15000
1"
0!
1X
0d!
0*
0e!
0L!
1&"
0'"
13!
0t
0>
0{
0s
1=
1?
1t
1>
1|
0?
0|
#20000
0"
1!
0X
1d!
1*
1e!
1L!
#25000
1"
0!
1X
0d!
0*
0e!
0L!
1'"
1{
1s
0=
1<!
0t
0>
1?
#30000
0"
1!
0X
1d!
1*
1e!
1L!
#35000
1"
0!
1X
0d!
0*
0e!
0L!
0&"
0'"
03!
1t
1>
0{
0s
1=
0<!
0?
0>
#40000
0"
1!
0X
1d!
1*
1e!
1L!
#45000
1"
0!
1X
0d!
0*
0e!
0L!
1'"
1{
1s
0=
1>
#50000
0"
1!
0X
1d!
1*
1e!
1L!
#55000
1"
0!
1X
0d!
0*
0e!
0L!
1&"
0'"
13!
0t
0>
0{
0s
1=
1?
1t
1>
1|
0?
0|
#60000
0"
1!
0X
1d!
1*
1e!
1L!
#65000
1"
0!
1X
0d!
0*
0e!
0L!
1'"
1{
1s
0=
1<!
0t
0>
1?
#70000
0"
1!
0X
1d!
1*
1e!
1L!
#75000
1"
0!
1X
0d!
0*
0e!
0L!
0&"
0'"
03!
1t
1>
0{
0s
1=
0<!
0?
0>
#80000
0"
1!
0X
1d!
1*
1e!
1L!
#85000
1"
0!
1X
0d!
0*
0e!
0L!
1'"
1{
1s
0=
1>
#90000
0"
1!
0X
1d!
1*
1e!
1L!
#95000
1"
0!
1X
0d!
0*
0e!
0L!
1&"
0'"
13!
0t
0>
0{
0s
1=
1?
1t
1>
1|
0?
0|
#100000
0"
1!
0X
1d!
1*
1e!
1L!
#105000
1"
0!
1X
0d!
0*
0e!
0L!
1'"
1{
1s
0=
1<!
0t
0>
1?
#110000
0"
1!
0X
1d!
1*
1e!
1L!
#115000
1"
0!
1X
0d!
0*
0e!
0L!
0&"
0'"
03!
1t
1>
0{
0s
1=
0<!
0?
0>
#120000
0"
1!
0X
1d!
1*
1e!
1L!
#125000
1"
0!
1X
0d!
0*
0e!
0L!
1'"
1{
1s
0=
1>
#130000
0"
1!
0X
1d!
1*
1e!
1L!
#135000
1"
0!
1X
0d!
0*
0e!
0L!
1&"
0'"
13!
0t
0>
0{
0s
1=
1?
1t
1>
1|
0?
0|
#140000
0"
1!
0X
1d!
1*
1e!
1L!
#145000
1"
0!
1X
0d!
0*
0e!
0L!
1'"
1{
1s
0=
1<!
0t
0>
1?
#150000
0"
1!
0X
1d!
1*
1e!
1L!
#155000
1"
0!
1X
0d!
0*
0e!
0L!
0&"
0'"
03!
1t
1>
0{
0s
1=
0<!
0?
0>
#160000
0"
1!
0X
1d!
1*
1e!
1L!
#165000
1"
0!
1X
0d!
0*
0e!
0L!
1'"
1{
1s
0=
1>
#170000
0"
1!
0X
1d!
1*
1e!
1L!
#175000
1"
0!
1X
0d!
0*
0e!
0L!
1&"
0'"
13!
0t
0>
0{
0s
1=
1?
1t
1>
1|
0?
0|
#180000
0"
1!
0X
1d!
1*
1e!
1L!
#185000
1"
0!
1X
0d!
0*
0e!
0L!
1'"
1{
1s
0=
1<!
0t
0>
1?
#190000
0"
1!
0X
1d!
1*
1e!
1L!
#195000
1"
0!
1X
0d!
0*
0e!
0L!
0&"
0'"
03!
1t
1>
0{
0s
1=
0<!
0?
0>
#200000
0"
1!
0X
1d!
1*
1e!
1L!
#205000
1"
0!
1X
0d!
0*
0e!
0L!
1'"
1{
1s
0=
1>
#210000
0"
1!
0X
1d!
1*
1e!
1L!
#215000
1"
0!
1X
0d!
0*
0e!
0L!
1&"
0'"
13!
0t
0>
0{
0s
1=
1?
1t
1>
1|
0?
0|
#220000
0"
1!
0X
1d!
1*
1e!
1L!
#225000
1"
0!
1X
0d!
0*
0e!
0L!
1'"
1{
1s
0=
1<!
0t
0>
1?
#230000
0"
1!
0X
1d!
1*
1e!
1L!
#235000
1"
0!
1X
0d!
0*
0e!
0L!
0&"
0'"
03!
1t
1>
0{
0s
1=
0<!
0?
0>
#240000
0"
1!
0X
1d!
1*
1e!
1L!
#245000
1"
0!
1X
0d!
0*
0e!
0L!
1'"
1{
1s
0=
1>
#250000
0"
1!
0X
1d!
1*
1e!
1L!
#255000
1"
0!
1X
0d!
0*
0e!
0L!
1&"
0'"
13!
0t
0>
0{
0s
1=
1?
1t
1>
1|
0?
0|
#260000
0"
1!
0X
1d!
1*
1e!
1L!
#265000
1"
0!
1X
0d!
0*
0e!
0L!
1'"
1{
1s
0=
1<!
0t
0>
1?
#270000
0"
1!
0X
1d!
1*
1e!
1L!
#275000
1"
0!
1X
0d!
0*
0e!
0L!
0&"
0'"
03!
1t
1>
0{
0s
1=
0<!
0?
0>
#280000
0"
1!
0X
1d!
1*
1e!
1L!
#285000
1"
0!
1X
0d!
0*
0e!
0L!
1'"
1{
1s
0=
1>
#290000
0"
1!
0X
1d!
1*
1e!
1L!
#295000
1"
0!
1X
0d!
0*
0e!
0L!
1&"
0'"
13!
0t
0>
0{
0s
1=
1?
1t
1>
1|
0?
0|
#300000
0"
1!
0X
1d!
1*
1e!
1L!
#305000
1"
0!
1X
0d!
0*
0e!
0L!
1'"
1{
1s
0=
1<!
0t
0>
1?
#310000
0"
1!
0X
1d!
1*
1e!
1L!
#315000
1"
0!
1X
0d!
0*
0e!
0L!
0&"
0'"
03!
1t
1>
0{
0s
1=
0<!
0?
0>
#320000
0"
1!
0X
1d!
1*
1e!
1L!
#325000
1"
0!
1X
0d!
0*
0e!
0L!
1'"
1{
1s
0=
1>
#330000
0"
1!
0X
1d!
1*
1e!
1L!
#335000
1"
0!
1X
0d!
0*
0e!
0L!
1&"
0'"
13!
0t
0>
0{
0s
1=
1?
1t
1>
1|
0?
0|
#340000
0"
1!
0X
1d!
1*
1e!
1L!
#345000
1"
0!
1X
0d!
0*
0e!
0L!
1'"
1{
1s
0=
1<!
0t
0>
1?
#350000
0"
1!
0X
1d!
1*
1e!
1L!
#355000
1"
0!
1X
0d!
0*
0e!
0L!
0&"
0'"
03!
1t
1>
0{
0s
1=
0<!
0?
0>
#360000
0"
1!
0X
1d!
1*
1e!
1L!
#365000
1"
0!
1X
0d!
0*
0e!
0L!
1'"
1{
1s
0=
1>
#370000
0"
1!
0X
1d!
1*
1e!
1L!
#375000
1"
0!
1X
0d!
0*
0e!
0L!
1&"
0'"
13!
0t
0>
0{
0s
1=
1?
1t
1>
1|
0?
0|
#380000
0"
1!
0X
1d!
1*
1e!
1L!
#385000
1"
0!
1X
0d!
0*
0e!
0L!
1'"
1{
1s
0=
1<!
0t
0>
1?
#390000
0"
1!
0X
1d!
1*
1e!
1L!
#395000
1"
0!
1X
0d!
0*
0e!
0L!
0&"
0'"
03!
1t
1>
0{
0s
1=
0<!
0?
0>
#400000
0"
1!
0X
1d!
1*
1e!
1L!
#405000
1"
0!
1X
0d!
0*
0e!
0L!
1'"
1{
1s
0=
1>
#410000
0"
1!
0X
1d!
1*
1e!
1L!
#415000
1"
0!
1X
0d!
0*
0e!
0L!
1&"
0'"
13!
0t
0>
0{
0s
1=
1?
1t
1>
1|
0?
0|
#420000
0"
1!
0X
1d!
1*
1e!
1L!
#425000
1"
0!
1X
0d!
0*
0e!
0L!
1'"
1{
1s
0=
1<!
0t
0>
1?
#430000
0"
1!
0X
1d!
1*
1e!
1L!
#435000
1"
0!
1X
0d!
0*
0e!
0L!
0&"
0'"
03!
1t
1>
0{
0s
1=
0<!
0?
0>
#440000
0"
1!
0X
1d!
1*
1e!
1L!
#445000
1"
0!
1X
0d!
0*
0e!
0L!
1'"
1{
1s
0=
1>
#450000
0"
1!
0X
1d!
1*
1e!
1L!
#455000
1"
0!
1X
0d!
0*
0e!
0L!
1&"
0'"
13!
0t
0>
0{
0s
1=
1?
1t
1>
1|
0?
0|
#460000
0"
1!
0X
1d!
1*
1e!
1L!
#465000
1"
0!
1X
0d!
0*
0e!
0L!
1'"
1{
1s
0=
1<!
0t
0>
1?
#470000
0"
1!
0X
1d!
1*
1e!
1L!
#475000
1"
0!
1X
0d!
0*
0e!
0L!
0&"
0'"
03!
1t
1>
0{
0s
1=
0<!
0?
0>
#480000
0"
1!
0X
1d!
1*
1e!
1L!
#485000
1"
0!
1X
0d!
0*
0e!
0L!
1'"
1{
1s
0=
1>
#490000
0"
1!
0X
1d!
1*
1e!
1L!
#495000
1"
0!
1X
0d!
0*
0e!
0L!
1&"
0'"
13!
0t
0>
0{
0s
1=
1?
1t
1>
1|
0?
0|
#500000
0"
1!
0X
1d!
1*
1e!
1L!
#505000
1"
0!
1X
0d!
0*
0e!
0L!
1'"
1{
1s
0=
1<!
0t
0>
1?
#510000
0"
1!
0X
1d!
1*
1e!
1L!
#515000
1"
0!
1X
0d!
0*
0e!
0L!
0&"
0'"
03!
1t
1>
0{
0s
1=
0<!
0?
0>
#520000
0"
1!
0X
1d!
1*
1e!
1L!
#525000
1"
0!
1X
0d!
0*
0e!
0L!
1'"
1{
1s
0=
1>
#530000
0"
1!
0X
1d!
1*
1e!
1L!
#535000
1"
0!
1X
0d!
0*
0e!
0L!
1&"
0'"
13!
0t
0>
0{
0s
1=
1?
1t
1>
1|
0?
0|
#540000
0"
1!
0X
1d!
1*
1e!
1L!
#545000
1"
0!
1X
0d!
0*
0e!
0L!
1'"
1{
1s
0=
1<!
0t
0>
1?
#550000
0"
1!
0X
1d!
1*
1e!
1L!
#555000
1"
0!
1X
0d!
0*
0e!
0L!
0&"
0'"
03!
1t
1>
0{
0s
1=
0<!
0?
0>
#560000
0"
1!
0X
1d!
1*
1e!
1L!
#565000
1"
0!
1X
0d!
0*
0e!
0L!
1'"
1{
1s
0=
1>
#570000
0"
1!
0X
1d!
1*
1e!
1L!
#575000
1"
0!
1X
0d!
0*
0e!
0L!
1&"
0'"
13!
0t
0>
0{
0s
1=
1?
1t
1>
1|
0?
0|
#580000
0"
1!
0X
1d!
1*
1e!
1L!
#585000
1"
0!
1X
0d!
0*
0e!
0L!
1'"
1{
1s
0=
1<!
0t
0>
1?
#590000
0"
1!
0X
1d!
1*
1e!
1L!
#595000
1"
0!
1X
0d!
0*
0e!
0L!
0&"
0'"
03!
1t
1>
0{
0s
1=
0<!
0?
0>
#600000
0"
1!
0X
1d!
1*
1e!
1L!
#605000
1"
0!
1X
0d!
0*
0e!
0L!
1'"
1{
1s
0=
1>
#610000
0"
1!
0X
1d!
1*
1e!
1L!
#615000
1"
0!
1X
0d!
0*
0e!
0L!
1&"
0'"
13!
0t
0>
0{
0s
1=
1?
1t
1>
1|
0?
0|
#620000
0"
1!
0X
1d!
1*
1e!
1L!
#625000
1"
0!
1X
0d!
0*
0e!
0L!
1'"
1{
1s
0=
1<!
0t
0>
1?
#630000
0"
1!
0X
1d!
1*
1e!
1L!
#635000
1"
0!
1X
0d!
0*
0e!
0L!
0&"
0'"
03!
1t
1>
0{
0s
1=
0<!
0?
0>
#640000
0"
1!
0X
1d!
1*
1e!
1L!
#645000
1"
0!
1X
0d!
0*
0e!
0L!
1'"
1{
1s
0=
1>
#650000
0"
1!
0X
1d!
1*
1e!
1L!
#655000
1"
0!
1X
0d!
0*
0e!
0L!
1&"
0'"
13!
0t
0>
0{
0s
1=
1?
1t
1>
1|
0?
0|
#660000
0"
1!
0X
1d!
1*
1e!
1L!
#665000
1"
0!
1X
0d!
0*
0e!
0L!
1'"
1{
1s
0=
1<!
0t
0>
1?
#670000
0"
1!
0X
1d!
1*
1e!
1L!
#675000
1"
0!
1X
0d!
0*
0e!
0L!
0&"
0'"
03!
1t
1>
0{
0s
1=
0<!
0?
0>
#680000
0"
1!
0X
1d!
1*
1e!
1L!
#685000
1"
0!
1X
0d!
0*
0e!
0L!
1'"
1{
1s
0=
1>
#690000
0"
1!
0X
1d!
1*
1e!
1L!
#695000
1"
0!
1X
0d!
0*
0e!
0L!
1&"
0'"
13!
0t
0>
0{
0s
1=
1?
1t
1>
1|
0?
0|
#700000
0"
1!
0X
1d!
1*
1e!
1L!
#705000
1"
0!
1X
0d!
0*
0e!
0L!
1'"
1{
1s
0=
1<!
0t
0>
1?
#710000
0"
1!
0X
1d!
1*
1e!
1L!
#715000
1"
0!
1X
0d!
0*
0e!
0L!
0&"
0'"
03!
1t
1>
0{
0s
1=
0<!
0?
0>
#720000
0"
1!
0X
1d!
1*
1e!
1L!
#725000
1"
0!
1X
0d!
0*
0e!
0L!
1'"
1{
1s
0=
1>
#730000
0"
1!
0X
1d!
1*
1e!
1L!
#735000
1"
0!
1X
0d!
0*
0e!
0L!
1&"
0'"
13!
0t
0>
0{
0s
1=
1?
1t
1>
1|
0?
0|
#740000
0"
1!
0X
1d!
1*
1e!
1L!
#745000
1"
0!
1X
0d!
0*
0e!
0L!
1'"
1{
1s
0=
1<!
0t
0>
1?
#750000
0"
1!
0X
1d!
1*
1e!
1L!
#755000
1"
0!
1X
0d!
0*
0e!
0L!
0&"
0'"
03!
1t
1>
0{
0s
1=
0<!
0?
0>
#760000
0"
1!
0X
1d!
1*
1e!
1L!
#765000
1"
0!
1X
0d!
0*
0e!
0L!
1'"
1{
1s
0=
1>
#770000
0"
1!
0X
1d!
1*
1e!
1L!
#775000
1"
0!
1X
0d!
0*
0e!
0L!
1&"
0'"
13!
0t
0>
0{
0s
1=
1?
1t
1>
1|
0?
0|
#780000
0"
1!
0X
1d!
1*
1e!
1L!
#785000
1"
0!
1X
0d!
0*
0e!
0L!
1'"
1{
1s
0=
1<!
0t
0>
1?
#790000
0"
1!
0X
1d!
1*
1e!
1L!
#795000
1"
0!
1X
0d!
0*
0e!
0L!
0&"
0'"
03!
1t
1>
0{
0s
1=
0<!
0?
0>
#800000
0"
1!
0X
1d!
1*
1e!
1L!
#805000
1"
0!
1X
0d!
0*
0e!
0L!
1'"
1{
1s
0=
1>
#810000
0"
1!
0X
1d!
1*
1e!
1L!
#815000
1"
0!
1X
0d!
0*
0e!
0L!
1&"
0'"
13!
0t
0>
0{
0s
1=
1?
1t
1>
1|
0?
0|
#820000
0"
1!
0X
1d!
1*
1e!
1L!
#825000
1"
0!
1X
0d!
0*
0e!
0L!
1'"
1{
1s
0=
1<!
0t
0>
1?
#830000
0"
1!
0X
1d!
1*
1e!
1L!
#835000
1"
0!
1X
0d!
0*
0e!
0L!
0&"
0'"
03!
1t
1>
0{
0s
1=
0<!
0?
0>
#840000
0"
1!
0X
1d!
1*
1e!
1L!
#845000
1"
0!
1X
0d!
0*
0e!
0L!
1'"
1{
1s
0=
1>
#850000
0"
1!
0X
1d!
1*
1e!
1L!
#855000
1"
0!
1X
0d!
0*
0e!
0L!
1&"
0'"
13!
0t
0>
0{
0s
1=
1?
1t
1>
1|
0?
0|
#860000
0"
1!
0X
1d!
1*
1e!
1L!
#865000
1"
0!
1X
0d!
0*
0e!
0L!
1'"
1{
1s
0=
1<!
0t
0>
1?
#870000
0"
1!
0X
1d!
1*
1e!
1L!
#875000
1"
0!
1X
0d!
0*
0e!
0L!
0&"
0'"
03!
1t
1>
0{
0s
1=
0<!
0?
0>
#880000
0"
1!
0X
1d!
1*
1e!
1L!
#885000
1"
0!
1X
0d!
0*
0e!
0L!
1'"
1{
1s
0=
1>
#890000
0"
1!
0X
1d!
1*
1e!
1L!
#895000
1"
0!
1X
0d!
0*
0e!
0L!
1&"
0'"
13!
0t
0>
0{
0s
1=
1?
1t
1>
1|
0?
0|
#900000
0"
1!
0X
1d!
1*
1e!
1L!
#905000
1"
0!
1X
0d!
0*
0e!
0L!
1'"
1{
1s
0=
1<!
0t
0>
1?
#910000
0"
1!
0X
1d!
1*
1e!
1L!
#915000
1"
0!
1X
0d!
0*
0e!
0L!
0&"
0'"
03!
1t
1>
0{
0s
1=
0<!
0?
0>
#920000
0"
1!
0X
1d!
1*
1e!
1L!
#925000
1"
0!
1X
0d!
0*
0e!
0L!
1'"
1{
1s
0=
1>
#930000
0"
1!
0X
1d!
1*
1e!
1L!
#935000
1"
0!
1X
0d!
0*
0e!
0L!
1&"
0'"
13!
0t
0>
0{
0s
1=
1?
1t
1>
1|
0?
0|
#940000
0"
1!
0X
1d!
1*
1e!
1L!
#945000
1"
0!
1X
0d!
0*
0e!
0L!
1'"
1{
1s
0=
1<!
0t
0>
1?
#950000
0"
1!
0X
1d!
1*
1e!
1L!
#955000
1"
0!
1X
0d!
0*
0e!
0L!
0&"
0'"
03!
1t
1>
0{
0s
1=
0<!
0?
0>
#960000
0"
1!
0X
1d!
1*
1e!
1L!
#965000
1"
0!
1X
0d!
0*
0e!
0L!
1'"
1{
1s
0=
1>
#970000
0"
1!
0X
1d!
1*
1e!
1L!
#975000
1"
0!
1X
0d!
0*
0e!
0L!
1&"
0'"
13!
0t
0>
0{
0s
1=
1?
1t
1>
1|
0?
0|
#980000
0"
1!
0X
1d!
1*
1e!
1L!
#985000
1"
0!
1X
0d!
0*
0e!
0L!
1'"
1{
1s
0=
1<!
0t
0>
1?
#990000
0"
1!
0X
1d!
1*
1e!
1L!
#995000
1"
0!
1X
0d!
0*
0e!
0L!
0&"
0'"
03!
1t
1>
0{
0s
1=
0<!
0?
0>
