TH/Lab3_CE221/simulation/qsim/Lab2_CE221.msim.vcd
$comment
	File created using the following command:
		vcd file Lab2_CE221.msim.vcd -direction
$end
$date
	Tue Oct 18 18:00:31 2022
$end
$version
	ModelSim Version 10.1d
$end
$timescale
	1ps
$end
$scope module lpm_counter_8bit_vlg_vec_tst $end
$var reg 1 ! clock $end
$var reg 1 " cnt_en $end
$var reg 1 # sclr $end
$var wire 1 $ q [7] $end
$var wire 1 % q [6] $end
$var wire 1 & q [5] $end
$var wire 1 ' q [4] $end
$var wire 1 ( q [3] $end
$var wire 1 ) q [2] $end
$var wire 1 * q [1] $end
$var wire 1 + q [0] $end
$var wire 1 , sampler $end
$scope module i1 $end
$var wire 1 - gnd $end
$var wire 1 . vcc $end
$var wire 1 / unknown $end
$var tri1 1 0 devclrn $end
$var tri1 1 1 devpor $end
$var tri1 1 2 devoe $end
$var wire 1 3 clock~combout $end
$var wire 1 4 clock~clkctrl_outclk $end
$var wire 1 5 LPM_COUNTER_component|auto_generated|counter_comb_bita0~combout $end
$var wire 1 6 ~GND~combout $end
$var wire 1 7 sclr~combout $end
$var wire 1 8 cnt_en~combout $end
$var wire 1 9 LPM_COUNTER_component|auto_generated|_~0_combout $end
$var wire 1 : LPM_COUNTER_component|auto_generated|counter_comb_bita0~COUT $end
$var wire 1 ; LPM_COUNTER_component|auto_generated|counter_comb_bita1~combout $end
$var wire 1 < LPM_COUNTER_component|auto_generated|counter_comb_bita1~COUT $end
$var wire 1 = LPM_COUNTER_component|auto_generated|counter_comb_bita2~combout $end
$var wire 1 > LPM_COUNTER_component|auto_generated|counter_comb_bita2~COUT $end
$var wire 1 ? LPM_COUNTER_component|auto_generated|counter_comb_bita3~combout $end
$var wire 1 @ LPM_COUNTER_component|auto_generated|counter_comb_bita3~COUT $end
$var wire 1 A LPM_COUNTER_component|auto_generated|counter_comb_bita4~combout $end
$var wire 1 B LPM_COUNTER_component|auto_generated|counter_comb_bita4~COUT $end
$var wire 1 C LPM_COUNTER_component|auto_generated|counter_comb_bita5~combout $end
$var wire 1 D LPM_COUNTER_component|auto_generated|counter_comb_bita5~COUT $end
$var wire 1 E LPM_COUNTER_component|auto_generated|counter_comb_bita6~combout $end
$var wire 1 F LPM_COUNTER_component|auto_generated|counter_comb_bita6~COUT $end
$var wire 1 G LPM_COUNTER_component|auto_generated|counter_comb_bita7~combout $end
$var wire 1 H LPM_COUNTER_component|auto_generated|safe_q [7] $end
$var wire 1 I LPM_COUNTER_component|auto_generated|safe_q [6] $end
$var wire 1 J LPM_COUNTER_component|auto_generated|safe_q [5] $end
$var wire 1 K LPM_COUNTER_component|auto_generated|safe_q [4] $end
$var wire 1 L LPM_COUNTER_component|auto_generated|safe_q [3] $end
$var wire 1 M LPM_COUNTER_component|auto_generated|safe_q [2] $end
$var wire 1 N LPM_COUNTER_component|auto_generated|safe_q [1] $end
$var wire 1 O LPM_COUNTER_component|auto_generated|safe_q [0] $end
$upscope $end
$upscope $end
$enddefinitions $end
#0
$dumpvars
0!
1"
0#
0+
0*
0)
0(
0'
0&
0%
0$
x,
0-
1.
x/
10
11
12
03
04
15
06
07
18
19
0:
0;
1<
0=
0>
0?
1@
0A
0B
0C
1D
0E
0F
0G
0O
0N
0M
0L
0K
0J
0I
0H
$end
#25000
1!
13
14
0,
1O
1:
05
1+
1;
#50000
0!
03
04
1,
#75000
1!
13
14
0,
1N
0O
0<
0;
0:
15
1*
0+
1=
1<
1;
0=
#100000
0!
03
04
1,
#125000
1!
13
14
0,
1O
1:
05
1+
0<
0;
1=
#150000
0!
03
04
1,
#175000
1!
13
14
0,
1M
0N
0O
1>
0=
1<
1;
0:
15
1)
0*
0+
1?
0>
1=
0;
0?
#200000
0!
03
04
1,
#225000
1!
13
14
0,
1O
1:
05
1+
1;
#250000
0!
03
04
1,
#275000
1!
13
14
0,
1N
0O
0<
0;
0:
15
1*
0+
1>
0=
1<
1;
1?
0>
1=
0?
#300000
1#
0!
17
03
04
1,
#325000
1!
13
14
0,
0M
0N
0=
0;
0)
0*
#350000
0#
0!
07
03
04
1,
#375000
1!
13
14
0,
1O
1:
05
1+
1;
#400000
0!
03
04
1,
#425000
1!
13
14
0,
1N
0O
0<
0;
0:
15
1*
0+
1=
1<
1;
0=
#450000
0!
03
04
1,
#475000
1!
13
14
0,
1O
1:
05
1+
0<
0;
1=
#500000
0!
03
04
1,
#525000
1!
13
14
0,
1M
0N
0O
1>
0=
1<
1;
0:
15
1)
0*
0+
1?
0>
1=
0;
0?
#550000
0!
03
04
1,
#575000
1!
13
14
0,
1O
1:
05
1+
1;
#600000
0!
03
04
1,
#625000
1!
13
14
0,
1N
0O
0<
0;
0:
15
1*
0+
1>
0=
1<
1;
1?
0>
1=
0?
#650000
0!
03
04
1,
#675000
1!
13
14
0,
1O
1:
05
1+
0<
0;
1>
0=
1?
#700000
0!
03
04
1,
#725000
1!
13
14
0,
1L
0M
0N
0O
0@
0?
0>
1=
1<
1;
0:
15
1(
0)
0*
0+
1A
1@
1?
0=
0;
0A
#750000
0!
03
04
1,
#775000
1!
13
14
0,
1O
1:
05
1+
1;
#800000
0!
03
04
1,
#825000
1!
13
14
0,
1N
0O
0<
0;
0:
15
1*
0+
1=
1<
1;
0=
#850000
0!
03
04
1,
#875000
1!
13
14
0,
1O
1:
05
1+
0<
0;
1=
#900000
0!
03
04
1,
#925000
1!
13
14
0,
1M
0N
0O
1>
0=
1<
1;
0:
15
1)
0*
0+
0@
0?
0>
1=
0;
1A
1@
1?
0A
#950000
0!
03
04
1,
#975000
1!
13
14
0,
1O
1:
05
1+
1;
