TH/Lab3/simulation/qsim/Lab3.msim.vcd
$comment
	File created using the following command:
		vcd file Lab3.msim.vcd -direction
$end
$date
	Wed Oct 19 10:58:21 2022
$end
$version
	ModelSim Version 10.1d
$end
$timescale
	1ps
$end
$scope module counter8bit_parameter_vlg_vec_tst $end
$var reg 1 ! clear $end
$var reg 1 " clk $end
$var reg 1 # en $end
$var wire 1 $ q [7] $end
$var wire 1 % q [6] $end
$var wire 1 & q [5] $end
$var wire 1 ' q [4] $end
$var wire 1 ( q [3] $end
$var wire 1 ) q [2] $end
$var wire 1 * q [1] $end
$var wire 1 + q [0] $end
$var wire 1 , sampler $end
$scope module i1 $end
$var wire 1 - gnd $end
$var wire 1 . vcc $end
$var wire 1 / unknown $end
$var tri1 1 0 devclrn $end
$var tri1 1 1 devpor $end
$var tri1 1 2 devoe $end
$var wire 1 3 en~combout $end
$var wire 1 4 clk~combout $end
$var wire 1 5 counter|q[0]~8_combout $end
$var wire 1 6 ~GND~combout $end
$var wire 1 7 clear~combout $end
$var wire 1 8 counter|q[0]~10_combout $end
$var wire 1 9 counter|q[0]~9 $end
$var wire 1 : counter|q[1]~11_combout $end
$var wire 1 ; counter|q[1]~12 $end
$var wire 1 < counter|q[2]~13_combout $end
$var wire 1 = counter|q[2]~14 $end
$var wire 1 > counter|q[3]~15_combout $end
$var wire 1 ? counter|q[3]~16 $end
$var wire 1 @ counter|q[4]~17_combout $end
$var wire 1 A counter|q[4]~18 $end
$var wire 1 B counter|q[5]~19_combout $end
$var wire 1 C counter|q[5]~20 $end
$var wire 1 D counter|q[6]~21_combout $end
$var wire 1 E counter|q[6]~22 $end
$var wire 1 F counter|q[7]~23_combout $end
$var wire 1 G counter|q [7] $end
$var wire 1 H counter|q [6] $end
$var wire 1 I counter|q [5] $end
$var wire 1 J counter|q [4] $end
$var wire 1 K counter|q [3] $end
$var wire 1 L counter|q [2] $end
$var wire 1 M counter|q [1] $end
$var wire 1 N counter|q [0] $end
$upscope $end
$upscope $end
$enddefinitions $end
#0
$dumpvars
1!
0"
1#
0+
0*
0)
0(
0'
0&
0%
0$
x,
0-
1.
x/
10
11
12
13
04
15
06
17
18
09
0:
1;
0<
0=
0>
1?
0@
0A
0B
1C
0D
0E
0F
0N
0M
0L
0K
0J
0I
0H
0G
$end
#20000
1"
14
0,
1N
19
05
1+
1:
#40000
0"
04
1,
#60000
1"
14
0,
1M
0N
0;
0:
09
15
1*
0+
1<
1;
1:
0<
#80000
0"
04
1,
#100000
1"
14
0,
1N
19
05
1+
0;
0:
1<
#120000
0"
04
1,
#140000
1"
14
0,
1L
0M
0N
1=
0<
1;
1:
09
15
1)
0*
0+
1>
0=
1<
0:
0>
#160000
0"
04
1,
#180000
1"
14
0,
1N
19
05
1+
1:
#200000
0"
04
1,
#220000
1"
14
0,
1M
0N
0;
0:
09
15
1*
0+
1=
0<
1;
1:
1>
0=
1<
0>
#240000
0"
04
1,
#260000
1"
14
0,
1N
19
05
1+
0;
0:
1=
0<
1>
#280000
0"
04
1,
#300000
1"
14
0,
1K
0L
0M
0N
0?
0>
0=
1<
1;
1:
09
15
1(
0)
0*
0+
1@
1?
1>
0<
0:
0@
#320000
0"
04
1,
#340000
1"
14
0,
1N
19
05
1+
1:
#360000
0"
04
1,
#380000
1"
14
0,
1M
0N
0;
0:
09
15
1*
0+
1<
1;
1:
0<
#400000
0"
04
1,
#420000
1"
14
0,
1N
19
05
1+
0;
0:
1<
#440000
0"
04
1,
#460000
1"
14
0,
1L
0M
0N
1=
0<
1;
1:
09
15
1)
0*
0+
0?
0>
0=
1<
0:
1@
1?
1>
0@
#480000
0"
04
1,
#500000
1"
14
0,
1N
19
05
1+
1:
#520000
0"
04
1,
#540000
1"
14
0,
1M
0N
0;
0:
09
15
1*
0+
1=
0<
1;
1:
0?
0>
0=
1<
1@
1?
1>
0@
#560000
0"
04
1,
#580000
1"
14
0,
1N
19
05
1+
0;
0:
1=
0<
0?
0>
1@
#600000
0"
04
1,
#620000
1"
14
0,
1J
0K
0L
0M
0N
1A
0@
1?
1>
0=
1<
1;
1:
09
15
1'
0(
0)
0*
0+
1B
0A
1@
0>
0<
0:
0B
#640000
0"
04
1,
#660000
1"
14
0,
1N
19
05
1+
1:
#680000
0"
04
1,
#700000
1"
14
0,
1M
0N
0;
0:
09
15
1*
0+
1<
1;
1:
0<
#720000
0"
04
1,
#740000
1"
14
0,
1N
19
05
1+
0;
0:
1<
#760000
0"
04
1,
#780000
1"
14
0,
1L
0M
0N
1=
0<
1;
1:
09
15
1)
0*
0+
1>
0=
1<
0:
0>
#800000
0"
04
1,
#820000
1"
14
0,
1N
19
05
1+
1:
#840000
0"
04
1,
#860000
1"
14
0,
1M
0N
0;
0:
09
15
1*
0+
1=
0<
1;
1:
1>
0=
1<
0>
#880000
0"
04
1,
#900000
1"
14
0,
1N
19
05
1+
0;
0:
1=
0<
1>
#920000
0"
04
1,
#940000
1"
14
0,
1K
0L
0M
0N
0?
0>
0=
1<
1;
1:
09
15
1(
0)
0*
0+
1A
0@
1?
1>
0<
0:
1B
0A
1@
0B
#960000
0"
04
1,
#980000
1"
14
0,
1N
19
05
1+
1:
