LT/TrafficLight/simulation/qsim/TL.msim.vcd
$comment
	File created using the following command:
		vcd file TL.msim.vcd -direction
$end
$date
	Wed Oct 19 14:28:02 2022
$end
$version
	ModelSim Version 10.1d
$end
$timescale
	1ps
$end
$scope module traffic_light_vlg_vec_tst $end
$var reg 1 ! c $end
$var reg 1 " clk $end
$var reg 1 # reset $end
$var reg 1 $ start $end
$var wire 1 % FG $end
$var wire 1 & FR $end
$var wire 1 ' FY $end
$var wire 1 ( HG $end
$var wire 1 ) HR $end
$var wire 1 * HY $end
$var wire 1 + sampler $end
$scope module i1 $end
$var wire 1 , gnd $end
$var wire 1 - vcc $end
$var wire 1 . unknown $end
$var tri1 1 / devclrn $end
$var tri1 1 0 devpor $end
$var tri1 1 1 devoe $end
$var wire 1 2 counter|count_next[0]~13_combout $end
$var wire 1 3 counter|count_next[1]~15_combout $end
$var wire 1 4 counter|count_next[2]~17_combout $end
$var wire 1 5 counter|count_next[3]~19_combout $end
$var wire 1 6 counter|count_next[4]~21_combout $end
$var wire 1 7 counter|count_next[8]~29_combout $end
$var wire 1 8 counter|Equal0~0_combout $end
$var wire 1 9 gM|delay_reg~regout $end
$var wire 1 : gM|WideOr1~0_combout $end
$var wire 1 ; gM|delay_reg~_wirecell_combout $end
$var wire 1 < clk~combout $end
$var wire 1 = c~combout $end
$var wire 1 > counter|count_next[0]~14 $end
$var wire 1 ? counter|count_next[1]~16 $end
$var wire 1 @ counter|count_next[2]~18 $end
$var wire 1 A counter|count_next[3]~20 $end
$var wire 1 B counter|count_next[4]~22 $end
$var wire 1 C counter|count_next[5]~23_combout $end
$var wire 1 D ~GND~combout $end
$var wire 1 E gM|mode_reg~regout $end
$var wire 1 F counter|count_next[5]~24 $end
$var wire 1 G counter|count_next[6]~25_combout $end
$var wire 1 H counter|count_next[6]~26 $end
$var wire 1 I counter|count_next[7]~27_combout $end
$var wire 1 J counter|Equal0~1_combout $end
$var wire 1 K counter|count_next[7]~28 $end
$var wire 1 L counter|count_next[8]~30 $end
$var wire 1 M counter|count_next[9]~31_combout $end
$var wire 1 N counter|count_next[9]~32 $end
$var wire 1 O counter|count_next[10]~33_combout $end
$var wire 1 P counter|count_next[10]~34 $end
$var wire 1 Q counter|count_next[11]~35_combout $end
$var wire 1 R counter|Equal0~2_combout $end
$var wire 1 S counter|count_next[11]~36 $end
$var wire 1 T counter|count_next[12]~37_combout $end
$var wire 1 U counter|Equal0~3_combout $end
$var wire 1 V FSM|Mux1~0_combout $end
$var wire 1 W reset~combout $end
$var wire 1 X FSM|Mux0~0_combout $end
$var wire 1 Y gS|Equal0~0_combout $end
$var wire 1 Z start~combout $end
$var wire 1 [ gS|Equal2~0_combout $end
$var wire 1 \ gS|Equal2~1_combout $end
$var wire 1 ] gS|Equal2~2_combout $end
$var wire 1 ^ FSM|next_state [1] $end
$var wire 1 _ FSM|next_state [0] $end
$var wire 1 ` counter|count_next [12] $end
$var wire 1 a counter|count_next [11] $end
$var wire 1 b counter|count_next [10] $end
$var wire 1 c counter|count_next [9] $end
$var wire 1 d counter|count_next [8] $end
$var wire 1 e counter|count_next [7] $end
$var wire 1 f counter|count_next [6] $end
$var wire 1 g counter|count_next [5] $end
$var wire 1 h counter|count_next [4] $end
$var wire 1 i counter|count_next [3] $end
$var wire 1 j counter|count_next [2] $end
$var wire 1 k counter|count_next [1] $end
$var wire 1 l counter|count_next [0] $end
$upscope $end
$upscope $end
$enddefinitions $end
#0
$dumpvars
1!
0"
0#
0$
z%
z&
z'
z(
z)
z*
x+
0,
1-
x.
1/
10
11
12
13
14
15
16
17
18
09
1:
1;
0<
1=
0>
1?
0@
1A
0B
1C
0D
0E
1F
1G
0H
1I
1J
1K
0L
1M
1N
1O
0P
1Q
1R
1S
1T
0U
1V
0W
0X
1Y
0Z
0[
0\
0]
0_
0^
0l
0k
0j
0i
0h
0g
0f
0e
0d
0c
0b
0a
0`
$end
#10000
1"
1<
0+
1_
19
1i
1k
1[
0Y
1X
0V
0:
0;
08
0A
05
0?
03
1U
1B
06
1@
04
0X
1V
0F
0C
15
1H
0G
0K
0I
1L
07
0N
0M
1P
0O
0S
0Q
0T
#20000
0"
0<
1+
#30000
1"
1<
0+
1E
09
0i
1j
0k
1l
1;
05
14
1?
13
1>
02
04
0?
03
14
#40000
0"
0<
1+
#50000
1"
1<
0+
0l
0>
12
1?
13
04
#60000
0"
0<
1+
#70000
1$
1"
1Z
1<
0+
1&
0'
0%
0)
1*
0(
0j
1k
1l
0@
14
0?
03
1>
02
1A
15
1@
04
13
0B
16
0A
05
1F
1C
1B
06
0H
1G
0F
0C
1K
1I
1H
0G
0L
17
0K
0I
1N
1M
1L
07
0P
1O
0N
0M
1S
1Q
1P
0O
1T
0S
0Q
0T
#80000
0"
0<
1+
#90000
1"
1<
0+
0l
0>
12
03
#100000
0"
0<
1+
#110000
1"
1<
0+
0k
1l
1?
13
1>
02
0@
14
0?
03
1A
15
1@
04
0B
16
0A
05
1F
1C
1B
06
0H
1G
0F
0C
1K
1I
1H
0G
0L
17
0K
0I
1N
1M
1L
07
0P
1O
0N
0M
1S
1Q
1P
0O
1T
0S
0Q
0T
#120000
0"
0<
1+
#130000
1"
1<
0+
0l
18
0>
12
0U
1?
13
1X
0V
0@
14
1A
15
0B
16
1F
1C
0H
1G
1K
1I
0L
17
1N
1M
0P
1O
1S
1Q
1T
#140000
0"
0<
1+
#150000
1"
1<
0+
1^
0_
1`
1a
1b
1c
1e
1f
1g
0E
1d
1h
1i
1j
1k
1l
1\
0[
1V
1:
1U
0T
0R
0S
0Q
1P
0O
0N
0M
0J
0K
0I
1H
0G
0F
0C
1L
07
1B
06
08
0A
05
1@
04
0?
03
1>
02
1)
0&
0V
0:
1T
1Q
1O
17
1I
1G
1M
1C
16
15
14
13
1%
0*
#160000
0"
0<
1+
#170000
1"
1<
0+
0`
0a
0b
0c
0e
0f
0g
1E
0d
0h
0j
0l
0T
1R
0Q
0O
0M
1J
0I
0G
0C
07
06
04
0>
12
03
#180000
0"
0<
1+
#190000
1"
1<
0+
0k
1l
1?
13
1>
02
0@
14
0?
03
05
1@
04
15
#200000
0"
0<
1+
#210000
1"
1<
0+
0l
0>
12
1?
13
0@
14
05
#220000
0"
0<
1+
#230000
1"
1<
0+
0i
1j
1k
1l
1A
15
1@
04
0?
03
1>
02
0B
16
0A
05
14
13
1F
1C
1B
06
0H
1G
0F
0C
1K
1I
1H
0G
0L
17
0K
0I
1N
1M
1L
07
0P
1O
0N
0M
1S
1Q
1P
0O
1T
0S
0Q
0T
#240000
0"
0<
1+
#250000
1"
1<
0+
0l
0>
12
03
#260000
0"
0<
1+
#270000
1"
1<
0+
0k
1l
1?
13
1>
02
04
0?
03
14
#280000
0"
0<
1+
#290000
1"
1<
0+
0l
0>
12
1?
13
04
#300000
0"
0<
1+
#310000
1"
1<
0+
0j
1k
1l
0@
14
0?
03
1>
02
1A
15
1@
04
13
0B
16
0A
05
1F
1C
1B
06
0H
1G
0F
0C
1K
1I
1H
0G
0L
17
0K
0I
1N
1M
1L
07
0P
1O
0N
0M
1S
1Q
1P
0O
1T
0S
0Q
0T
#320000
0"
0<
1+
#330000
1"
1<
0+
0l
0>
12
03
#340000
0"
0<
1+
#350000
1"
1<
0+
0k
1l
1?
13
1>
02
0@
14
0?
03
1A
15
1@
04
0B
16
0A
05
1F
1C
1B
06
0H
1G
0F
0C
1K
1I
1H
0G
0L
17
0K
0I
1N
1M
1L
07
0P
1O
0N
0M
1S
1Q
1P
0O
1T
0S
0Q
0T
#360000
0"
0<
1+
#370000
1"
1<
0+
0l
18
0>
12
0U
1?
13
1V
1:
0@
14
1A
15
0B
16
1F
1C
0H
1G
1K
1I
0L
17
1N
1M
0P
1O
1S
1Q
1T
#380000
0"
0<
1+
#390000
1"
1<
0+
1_
1`
1a
1b
1c
1e
1f
1g
0E
19
1d
1h
1i
1j
1k
1l
1]
0\
0X
0V
0:
1U
0T
0R
0S
0Q
1P
0O
0N
0M
0J
0K
0I
1H
0G
0F
0C
0;
1L
07
1B
06
08
0A
05
1@
04
0?
03
1>
02
1X
1V
1T
1Q
1O
17
1I
1G
1M
1C
16
15
14
13
1'
0%
#400000
0"
0<
1+
#410000
1"
1<
0+
0`
0a
0b
0c
0e
0f
0g
1E
09
0d
0h
0i
0k
0T
1R
0Q
0O
0M
1J
0I
0G
0C
1;
07
06
05
03
#420000
0"
0<
1+
#430000
1"
1<
0+
0l
0>
12
1?
13
04
#440000
0"
0<
1+
#450000
1"
1<
0+
0j
1k
1l
0@
14
0?
03
1>
02
1A
15
1@
04
13
0B
16
0A
05
1F
1C
1B
06
0H
1G
0F
0C
1K
1I
1H
0G
0L
17
0K
0I
1N
1M
1L
07
0P
1O
0N
0M
1S
1Q
1P
0O
1T
0S
0Q
0T
#460000
0"
0<
1+
#470000
1"
1<
0+
0l
0>
12
03
#480000
0"
0<
1+
#490000
1"
1<
0+
0k
1l
1?
13
1>
02
0@
14
0?
03
1A
15
1@
04
0B
16
0A
05
1F
1C
1B
06
0H
1G
0F
0C
1K
1I
1H
0G
0L
17
0K
0I
1N
1M
1L
07
0P
1O
0N
0M
1S
1Q
1P
0O
1T
0S
0Q
0T
#500000
0"
0<
1+
#510000
1"
1<
0+
0l
18
0>
12
0U
1?
13
0X
0V
0@
14
1A
15
0B
16
1F
1C
0H
1G
1K
1I
0L
17
1N
1M
0P
1O
1S
1Q
1T
#520000
0"
0<
1+
#530000
1"
1<
0+
0^
0_
1`
1a
1b
1c
1e
1f
1g
0E
1d
1h
1i
1j
1k
1l
0]
1Y
1V
1:
1U
0T
0R
0S
0Q
1P
0O
0N
0M
0J
0K
0I
1H
0G
0F
0C
1L
07
1B
06
08
0A
05
1@
04
0?
03
1>
02
0)
1&
0V
0:
1T
1Q
1O
17
1I
1G
1M
1C
16
15
14
13
0'
1(
#540000
0"
0<
1+
#550000
1"
1<
0+
0`
0a
0b
0c
0e
0f
0g
1E
0d
0h
0j
0l
0T
1R
0Q
0O
0M
1J
0I
0G
0C
07
06
04
0>
12
03
#560000
0"
0<
1+
#570000
1"
1<
0+
0k
1l
1?
13
1>
02
0@
14
0?
03
05
1@
04
15
#580000
0"
0<
1+
#590000
1"
1<
0+
0l
0>
12
1?
13
0@
14
05
#600000
0"
0<
1+
#610000
1"
1<
0+
0i
1j
1k
1l
1A
15
1@
04
0?
03
1>
02
0B
16
0A
05
14
13
1F
1C
1B
06
0H
1G
0F
0C
1K
1I
1H
0G
0L
17
0K
0I
1N
1M
1L
07
0P
1O
0N
0M
1S
1Q
1P
0O
1T
0S
0Q
0T
#620000
0"
0<
1+
#630000
1"
1<
0+
0l
0>
12
03
#640000
0"
0<
1+
#650000
1"
1<
0+
0k
1l
1?
13
1>
02
04
0?
03
14
#660000
0"
0<
1+
#670000
1"
1<
0+
0l
0>
12
1?
13
04
#680000
0"
0<
1+
#690000
1"
1<
0+
0j
1k
1l
0@
14
0?
03
1>
02
1A
15
1@
04
13
0B
16
0A
05
1F
1C
1B
06
0H
1G
0F
0C
1K
1I
1H
0G
0L
17
0K
0I
1N
1M
1L
07
0P
1O
0N
0M
1S
1Q
1P
0O
1T
0S
0Q
0T
#700000
0"
0<
1+
#710000
1"
1<
0+
0l
0>
12
03
#720000
0"
0<
1+
#730000
1"
1<
0+
0k
1l
1?
13
1>
02
0@
14
0?
03
1A
15
1@
04
0B
16
0A
05
1F
1C
1B
06
0H
1G
0F
0C
1K
1I
1H
0G
0L
17
0K
0I
1N
1M
1L
07
0P
1O
0N
0M
1S
1Q
1P
0O
1T
0S
0Q
0T
#740000
0"
0<
1+
#750000
1"
1<
0+
0l
18
0>
12
0U
1?
13
1V
1:
0@
14
1A
15
0B
16
1F
1C
0H
1G
1K
1I
0L
17
1N
1M
0P
1O
1S
1Q
1T
#760000
0"
0<
1+
#770000
1"
1<
0+
1_
1`
1a
1b
1c
1e
1f
1g
0E
19
1d
1h
1i
1j
1k
1l
1[
0Y
1X
0V
0:
1U
0T
0R
0S
0Q
1P
0O
0N
0M
0J
0K
0I
1H
0G
0F
0C
0;
1L
07
1B
06
08
0A
05
1@
04
0?
03
1>
02
0X
1V
1T
1Q
1O
17
1I
1G
1M
1C
16
15
14
13
1*
0(
#780000
0"
0<
1+
#790000
1"
1<
0+
0`
0a
0b
0c
0e
0f
0g
1E
09
0d
0h
0i
0k
0T
1R
0Q
0O
0M
1J
0I
0G
0C
1;
07
06
05
03
#800000
0"
0<
1+
#810000
1"
1<
0+
0l
0>
12
1?
13
04
#820000
0"
0<
1+
#830000
1"
1<
0+
0j
1k
1l
0@
14
0?
03
1>
02
1A
15
1@
04
13
0B
16
0A
05
1F
1C
1B
06
0H
1G
0F
0C
1K
1I
1H
0G
0L
17
0K
0I
1N
1M
1L
07
0P
1O
0N
0M
1S
1Q
1P
0O
1T
0S
0Q
0T
#840000
0"
0<
1+
#850000
1"
1<
0+
0l
0>
12
03
#860000
0"
0<
1+
#870000
1"
1<
0+
0k
1l
1?
13
1>
02
0@
14
0?
03
1A
15
1@
04
0B
16
0A
05
1F
1C
1B
06
0H
1G
0F
0C
1K
1I
1H
0G
0L
17
0K
0I
1N
1M
1L
07
0P
1O
0N
0M
1S
1Q
1P
0O
1T
0S
0Q
0T
#880000
0"
0<
1+
#890000
1"
1<
0+
0l
18
0>
12
0U
1?
13
1X
0V
0@
14
1A
15
0B
16
1F
1C
0H
1G
1K
1I
0L
17
1N
1M
0P
1O
1S
1Q
1T
#900000
0"
0<
1+
#910000
1"
1<
0+
1^
0_
1`
1a
1b
1c
1e
1f
1g
0E
1d
1h
1i
1j
1k
1l
1\
0[
1V
1:
1U
0T
0R
0S
0Q
1P
0O
0N
0M
0J
0K
0I
1H
0G
0F
0C
1L
07
1B
06
08
0A
05
1@
04
0?
03
1>
02
1)
0&
0V
0:
1T
1Q
1O
17
1I
1G
1M
1C
16
15
14
13
1%
0*
#920000
0"
0<
1+
#930000
1"
1<
0+
0`
0a
0b
0c
0e
0f
0g
1E
0d
0h
0j
0l
0T
1R
0Q
0O
0M
1J
0I
0G
0C
07
06
04
0>
12
03
#940000
0"
0<
1+
#950000
1"
1<
0+
0k
1l
1?
13
1>
02
0@
14
0?
03
05
1@
04
15
#960000
0"
0<
1+
#970000
1"
1<
0+
0l
0>
12
1?
13
0@
14
05
#980000
0"
0<
1+
#990000
1"
1<
0+
0i
1j
1k
1l
1A
15
1@
04
0?
03
1>
02
0B
16
0A
05
14
13
1F
1C
1B
06
0H
1G
0F
0C
1K
1I
1H
0G
0L
17
0K
0I
1N
1M
1L
07
0P
1O
0N
0M
1S
1Q
1P
0O
1T
0S
0Q
0T
