LT/Data_pipeline/simulation/qsim/Data_pipeline.msim.vcd
$comment
	File created using the following command:
		vcd file Data_pipeline.msim.vcd -direction
$end
$date
	Wed Oct 05 12:39:50 2022
$end
$version
	ModelSim Version 10.1d
$end
$timescale
	1ps
$end
$scope module Data_pipeline_vlg_vec_tst $end
$var reg 16 ! a [15:0] $end
$var reg 16 " b [15:0] $end
$var wire 1 # o [15] $end
$var wire 1 $ o [14] $end
$var wire 1 % o [13] $end
$var wire 1 & o [12] $end
$var wire 1 ' o [11] $end
$var wire 1 ( o [10] $end
$var wire 1 ) o [9] $end
$var wire 1 * o [8] $end
$var wire 1 + o [7] $end
$var wire 1 , o [6] $end
$var wire 1 - o [5] $end
$var wire 1 . o [4] $end
$var wire 1 / o [3] $end
$var wire 1 0 o [2] $end
$var wire 1 1 o [1] $end
$var wire 1 2 o [0] $end
$var wire 1 3 sampler $end
$scope module i1 $end
$var wire 1 4 gnd $end
$var wire 1 5 vcc $end
$var wire 1 6 unknown $end
$var tri1 1 7 devclrn $end
$var tri1 1 8 devpor $end
$var tri1 1 9 devoe $end
$var wire 1 : inst|sub|sub16_adder13|t2~0_combout $end
$var wire 1 ; inst|sub|sub16_adder13|t2~1_combout $end
$var wire 1 < inst|sub|sub16_adder13|t2~2_combout $end
$var wire 1 = inst|sub|sub16_adder13|t2~3_combout $end
$var wire 1 > inst|sub|sub16_adder6|cout~0_combout $end
$var wire 1 ? inst|sub|sub16_adder6|cout~1_combout $end
$var wire 1 @ inst|sub|sub16_adder6|cout~2_combout $end
$var wire 1 A inst|sub|sub16_adder6|cout~3_combout $end
$var wire 1 B inst|sub|sub16_adder6|cout~4_combout $end
$var wire 1 C inst|sub|sub16_adder6|cout~5_combout $end
$var wire 1 D inst|sub|sub16_adder6|cout~6_combout $end
$var wire 1 E inst|sub|sub16_adder13|t2~4_combout $end
$var wire 1 F inst|sub|sub16_adder13|t2~5_combout $end
$var wire 1 G inst|sub|sub16_adder13|cout~0_combout $end
$var wire 1 H inst|sub|sub16_adder13|t2~6_combout $end
$var wire 1 I inst|sub|sub16_adder13|t2~7_combout $end
$var wire 1 J inst|sub|sub16_adder13|t2~8_combout $end
$var wire 1 K inst|sub|sub16_adder13|cout~1_combout $end
$var wire 1 L inst|sub|sub16_adder13|t2~9_combout $end
$var wire 1 M inst|sub|sub16_adder13|t2~10_combout $end
$var wire 1 N inst|sub|sub16_adder13|cout~2_combout $end
$var wire 1 O inst|sub|sub16_adder13|cout~3_combout $end
$var wire 1 P inst|sub|sub16_adder15|cout~0_combout $end
$var wire 1 Q inst|mux|or_gate1[15]~0_combout $end
$var wire 1 R inst|sub|sub16_adder15|cout~1_combout $end
$var wire 1 S inst|mux|or_gate1[14]~1_combout $end
$var wire 1 T inst|mux|or_gate1[13]~2_combout $end
$var wire 1 U inst|mux|or_gate1[12]~3_combout $end
$var wire 1 V inst|mux|or_gate1[11]~4_combout $end
$var wire 1 W inst|mux|or_gate1[10]~5_combout $end
$var wire 1 X inst|mux|or_gate1[9]~6_combout $end
$var wire 1 Y inst|mux|or_gate1[8]~7_combout $end
$var wire 1 Z inst|mux|or_gate1[7]~8_combout $end
$var wire 1 [ inst|mux|or_gate1[6]~9_combout $end
$var wire 1 \ inst|mux|or_gate1[5]~10_combout $end
$var wire 1 ] inst|mux|or_gate1[4]~11_combout $end
$var wire 1 ^ inst|mux|or_gate1[3]~12_combout $end
$var wire 1 _ inst|mux|or_gate1[2]~13_combout $end
$var wire 1 ` inst|mux|or_gate1[1]~14_combout $end
$var wire 1 a inst|mux|or_gate1[0]~15_combout $end
$var wire 1 b b~combout [15] $end
$var wire 1 c b~combout [14] $end
$var wire 1 d b~combout [13] $end
$var wire 1 e b~combout [12] $end
$var wire 1 f b~combout [11] $end
$var wire 1 g b~combout [10] $end
$var wire 1 h b~combout [9] $end
$var wire 1 i b~combout [8] $end
$var wire 1 j b~combout [7] $end
$var wire 1 k b~combout [6] $end
$var wire 1 l b~combout [5] $end
$var wire 1 m b~combout [4] $end
$var wire 1 n b~combout [3] $end
$var wire 1 o b~combout [2] $end
$var wire 1 p b~combout [1] $end
$var wire 1 q b~combout [0] $end
$var wire 1 r a~combout [15] $end
$var wire 1 s a~combout [14] $end
$var wire 1 t a~combout [13] $end
$var wire 1 u a~combout [12] $end
$var wire 1 v a~combout [11] $end
$var wire 1 w a~combout [10] $end
$var wire 1 x a~combout [9] $end
$var wire 1 y a~combout [8] $end
$var wire 1 z a~combout [7] $end
$var wire 1 { a~combout [6] $end
$var wire 1 | a~combout [5] $end
$var wire 1 } a~combout [4] $end
$var wire 1 ~ a~combout [3] $end
$var wire 1 !! a~combout [2] $end
$var wire 1 "! a~combout [1] $end
$var wire 1 #! a~combout [0] $end
$upscope $end
$upscope $end
$enddefinitions $end
#0
$dumpvars
b100100000101010 !
b1101011100101000 "
02
01
00
1/
0.
1-
0,
0+
1*
1)
1(
0'
1&
0%
1$
1#
x3
04
15
x6
17
18
19
0:
0;
0<
0=
0>
0?
1@
1A
0B
1C
1D
0E
0F
0G
0H
1I
0J
0K
0L
0M
0N
0O
0P
1Q
0R
1S
0T
1U
0V
1W
1X
1Y
0Z
0[
1\
0]
1^
0_
0`
0a
0q
0p
0o
1n
0m
1l
0k
0j
1i
1h
1g
0f
1e
0d
1c
1b
0#!
1"!
0!!
1~
0}
1|
0{
0z
0y
0x
0w
1v
0u
0t
1s
0r
$end
#50000
b110100000101010 !
b111100000101010 !
b111000000101010 !
b111001000101010 !
b111001100101010 !
b111001101101010 !
b111001101001010 !
b111001101001000 !
b101011100101000 "
b101111100101000 "
b101101100101000 "
b101101000101000 "
b101101010101000 "
b101101010001000 "
b101101010011000 "
b101101010011010 "
1p
1m
0l
1j
0i
0g
1f
0b
0"!
0|
1{
1y
1x
0v
1u
1t
03
1`
0@
1]
0D
0\
1B
1Z
0Y
0W
1V
0Q
1?
1K
0A
0C
1D
1O
11
1.
0-
1+
0*
0(
1'
0#
1P
1R
0`
0]
1[
0Z
1Y
0V
1T
01
0.
1,
0+
1*
0'
1%
#100000
b1111001101001000 !
b1011001101001000 !
b1011011101001000 !
b1101010011010 "
b11101010011010 "
b11101011011010 "
b11101011011110 "
b1010011101001000 !
b1010111101001000 !
b1010110101001000 !
b1010110001001000 !
b11111011011110 "
b11111111011110 "
b11111111111110 "
b11111111111100 "
0p
1o
1l
1k
1i
1g
1d
0c
0y
0x
1w
1v
0u
0s
1r
13
1@
0?
0Y
1W
1:
0K
0S
0X
1V
0U
1Q
0D
0O
0*
1(
0$
0)
1'
0&
1#
0P
#150000
b1010110001011000 !
b1010110001011001 !
b10111111111100 "
b10111111110100 "
b1010110000011001 !
b10011111110100 "
b10011111100100 "
b10110000011001 !
b110110000011001 !
b110100000011001 !
b110011111100100 "
b110011110100100 "
b110011110100000 "
b111100000011001 !
b111000000011001 !
b111001000011001 !
b110001110100000 "
0o
0n
0m
0k
0g
0f
0e
1c
1#!
1}
0{
1x
0w
0v
1u
1s
0r
03
1A
1]
0[
0W
0V
1U
1K
1S
1a
1X
1;
0R
0Q
1O
0a
0^
0]
1\
1Z
1Y
0U
1.
0,
0(
0'
1&
1$
12
1)
0#
1P
02
0/
0.
1-
1+
1*
0&
1R
1a
1^
1]
0\
0Z
0Y
1U
12
1/
1.
0-
0+
0*
1&
#200000
b111001010011001 !
b111001010010001 !
b111001010010101 !
b101001010010101 !
b101001010110101 !
b1110001110100000 "
b1110001100100000 "
b101001110110101 !
b101001110100101 !
b1111001100100000 "
b1111001100101000 "
b1101001110100101 !
b1111001101101000 "
b1111011101101000 "
1n
1k
0j
1g
1e
1b
1!!
0~
0}
1|
1z
1y
0t
1r
13
0^
1Z
1F
0:
0K
0I
1<
1Q
1_
0]
1\
1Y
0T
0;
1G
0<
0O
1=
0/
1+
1#
10
0.
1-
1*
0%
1O
0G
0=
0P
1P
0O
0R
1R
0P
0a
0_
1^
1[
0Z
1W
1T
1a
1_
0^
0[
1Z
0W
0T
0R
02
00
1/
1,
0+
1(
1%
0a
0_
1^
1[
0Z
1W
1T
12
10
0/
0,
1+
0(
0%
02
00
1/
1,
0+
1(
1%
#250000
b1111011001101000 "
b1111011001001000 "
b1111011001001010 "
b1101001110100100 !
b1101001111100100 !
b1111011001011010 "
b1001001111100100 !
b1001011111100100 !
b1111011001011110 "
b1000011111100100 !
b1000111111100100 !
b1000111101100100 !
b1000111101100000 !
b1010111101100000 !
b1010111101000000 !
b111011001011110 "
b111011011011110 "
b110011011011110 "
b10111101000000 !
0#!
0!!
0|
1{
0z
1w
1v
0u
1t
0s
0r
1p
1o
1m
0l
1j
0i
0e
0b
03
0@
1_
0A
0\
0B
1Z
0F
1I
0U
1L
1;
0Q
1`
1]
0Y
1N
10
0-
1+
0&
0#
11
1.
0*
1O
#300000
b110010011011110 "
b110010011010110 "
b110010111010110 "
b110010111110110 "
b10111101000001 !
b110010111100110 "
b10101101000001 !
b11101101000001 !
b1101101000001 !
b1101101100001 !
1#!
1|
0w
1u
0t
0n
0m
1l
1i
0h
13
1\
0L
0;
0^
0]
1Y
0X
0N
1-
0/
0.
1*
0)
0O
#350000
b110010111100111 "
b100010111100111 "
b1101101101001 !
b1101001101001 !
b1101001111001 !
b100010110100111 "
b100000110100111 "
b100000110100101 "
b1101000111001 !
b1101010111001 !
b1100000110100101 "
b1101000110100101 "
b1001101010111001 !
b1101001110100101 "
b1101001110101101 "
b1101001010101101 "
b1101001010001101 "
b1001101010111000 !
b1000101010111000 !
b1010101010111000 !
b1010101010011000 !
0#!
1~
1}
0|
0{
1z
0y
0u
1t
1r
1q
0p
1n
0l
0k
0i
1h
0g
1e
0d
1b
03
1a
1^
1>
0\
0[
0Y
1U
1K
0T
1Q
0`
1X
0W
1?
1O
12
1/
0-
0,
0*
1&
0%
1#
01
1)
0(
1D
#400000
b1101101010001101 "
b1101101000001101 "
b1010111010011000 !
b1010111110011000 !
b1010111110001000 !
b101101000001101 "
b10111110001000 !
b101100000001101 "
b10111110101000 !
0}
1|
1y
1w
0r
0j
0h
1f
0b
13
1B
1M
0Q
0Z
1F
0X
1V
0#
0+
0)
1'
#450000
b10111110101010 !
b1100000001101 "
b10110110101010 !
b10010110101010 !
b10010110101110 !
b1100000001100 "
b1100000001110 "
b10010100101110 !
b100000001110 "
b10010100101111 !
b10100101111 !
b100010001110 "
b10000101111 !
b1000100010001110 "
b1000101010001110 "
0q
1p
1j
1h
0e
0c
1b
1#!
1"!
1!!
0z
0y
0x
0v
0t
03
0a
1@
1`
1Z
0F
1X
0U
1L
0K
0S
1P
1Q
1A
0O
02
11
1+
1)
0&
0$
1#
0P
#500000
b1000101010001010 "
b1010101010001010 "
b1010101011001010 "
b1010111011001010 "
b1010111111001010 "
b1010111111101010 "
b1010011111101010 "
b101111 !
b111111 !
b1000000000111111 !
b1110011111101010 "
b1000100000111111 !
b1110011111101011 "
b1000100010111111 !
b1111011111101011 "
b1010100010111111 !
b1010100110111111 !
1}
1z
1y
0w
1v
1t
1r
1q
0o
1l
1k
1i
1g
0f
1e
1d
1c
13
1Y
1W
0M
0V
1N
1T
0L
1a
0_
1\
1[
0?
1U
1S
0N
1O
0D
1*
1(
0'
1%
12
00
1-
1,
1&
1$
0O
#550000
b1010100111111111 !
b1010100111011111 !
b1010100111011101 !
b1111011111101001 "
b1010100111011100 !
b1111011101101001 "
b1111010101101001 "
b1101010101101001 "
b1101010100101001 "
b1101010000101001 "
b1001010000101001 "
b1010000111011100 !
b1001010000101000 "
b1010000101011100 !
b1000000101011100 !
0q
0p
0k
0j
0i
0h
0d
0c
0#!
0"!
0|
1{
0z
0v
0t
03
0a
0`
0[
1?
0Z
0Y
0X
1;
0T
0S
0>
1D
02
01
0,
0+
0*
0)
0%
0$
#600000
b1000001101011100 !
b1001000000101000 "
b1001100000101000 "
b1000011101011100 !
b1000100000101000 "
b1000011101011110 !
b1000100000101010 "
b1000011101011111 !
b1000100010101010 "
b1000100011101010 "
b1000100111101010 "
b1100100111101010 "
b1000111101011111 !
1p
1k
1j
1i
0g
1f
0e
1c
1#!
1"!
1x
1w
1v
13
1`
1[
0?
1Z
1Y
0W
1M
1V
0I
0U
1L
1S
0;
0D
1N
11
1,
1+
1*
0(
1'
0&
1$
1O
#650000
b1100100111111010 "
b1001111101011111 !
b100100111111010 "
b100100111111110 "
b100100111011110 "
b1001111101001111 !
b1001111100001111 !
b110100111011110 "
b110100111011111 "
b1001111110001111 !
b111100111011111 "
b111100111011101 "
b1001111110001110 !
b111100110011101 "
b111100010011101 "
b11100010011101 "
0#!
0}
0{
1z
1u
1q
0p
1o
1m
0l
0k
0i
1e
1d
0c
0b
03
1a
1]
0[
0B
1U
0L
0`
1_
0\
0Y
1T
0S
1P
1R
1C
0N
0a
1`
0]
1Y
1X
1W
0T
12
1.
0,
1&
01
10
0-
0*
1%
0$
0O
02
11
0.
1*
1)
1(
0%
0P
#700000
b11100010010101 "
b1111110001110 !
b1111010001110 !
b11111010001110 !
b11110010001110 !
b11000010010101 "
b11100010001110 !
b11100010001100 !
b11000000010101 "
b11000000010001 "
b11000000110001 "
b1000000110001 "
b110001 "
b110011 "
b11100010001101 !
b100000000110011 "
1#!
0"!
0y
0x
0w
1t
0r
1p
0o
0n
1l
0j
0f
0e
0d
1c
13
1a
0@
0`
0Y
0X
0W
0M
1T
1K
0R
0Q
1B
1F
1I
1O
1`
0_
0^
1]
1\
0Z
0V
0U
0T
1S
0C
12
01
0*
0)
0(
1%
0#
11
00
0/
1.
1-
0+
0'
0&
0%
1$
#750000
b11100010000101 !
b11000010000101 !
b100000000100011 "
b10000010000101 !
b1100000000100011 "
b10000011000101 !
b1100000000100010 "
b10001011000101 !
b1100100000100010 "
b10001011000111 !
b1100100010100010 "
b1000100010100010 "
0q
0m
1j
1f
0c
1b
1"!
0~
1{
1x
0v
0u
03
0a
1@
0]
1Z
0F
1V
0S
1P
1Q
1?
1H
1D
02
0.
1+
1'
0$
1#
#800000
b110001011000111 !
b110001011100111 !
b1000101010100010 "
b1000111010100010 "
b110001011110111 !
b1000111110100010 "
b1000111110101010 "
b110001111110111 !
b100001111110111 !
b1000111110101110 "
b100001111111111 !
b1000111110111110 "
b111110111110 "
b111110111111 "
b100001111111101 !
1q
1o
1n
1m
1i
1h
1g
0b
0"!
1~
1}
1|
1y
0t
1s
13
1a
0@
1_
1^
1]
1Y
1X
0H
1;
1W
1R
0Q
1L
0K
0A
0`
1[
0W
0V
1S
0O
12
10
1/
1.
1*
1)
1(
0#
01
1,
0(
0'
1$
#850000
b100001111111001 !
b100001101111001 !
b1100001101111001 !
b10111110111111 "
b1100001101111000 !
b1100101101111000 !
b110111110111111 "
b1000101101111000 !
b1000101101011000 !
b110110110111111 "
b1000101001011000 !
b1010101001011000 !
b110110110111110 "
b1010101001011010 !
0q
0h
1d
1c
0#!
1"!
0!!
0|
0z
0y
1v
1t
0s
1r
03
0a
1@
0;
1T
0S
0P
1`
0_
0\
0Z
0Y
1V
0I
1Q
02
1%
0$
11
00
0-
0+
0*
1'
1#
#900000
b110110111111110 "
b1010111001011010 !
b111110111111110 "
b111110111111100 "
b1011111001011010 !
b1011110001011010 !
b111110101111100 "
b111100101111100 "
b1011110001001010 !
b111100001111100 "
b111100001111000 "
b1011110001000010 !
b111100001101000 "
b1111100001101000 "
b1011110001000110 !
b1011110011000110 !
b11110011000110 !
b11110011000111 !
b11010011000111 !
b1011100001101000 "
b11010011100111 !
b1010011100111 !
b1011100001101001 "
1#!
1!!
0~
0}
1|
1z
0x
1w
0v
1u
0t
0r
1q
0p
0o
0m
1k
0j
0i
0g
1e
0c
1b
13
1a
1_
1A
0^
0]
1\
0B
1Z
1F
0X
1W
1M
0V
1I
1U
0L
0T
0R
0?
0`
0_
1^
0Z
0W
1V
1T
0D
12
10
0/
0.
1-
1+
0)
1(
0'
1&
0%
01
00
1/
0+
0(
1'
1%
#950000
b1011100001100001 "
b101010011100111 !
b101010111100111 !
b101010111100101 !
b101000111100101 !
b1010100001100001 "
b1010100011100001 "
b1010110011100001 "
b101000111110101 !
b1010110011100101 "
b101000111111101 !
b10110011100101 "
b101000101111101 !
b110110011100101 "
b111000101111101 !
b110110011100100 "
0"!
1~
1}
0z
1y
0w
1t
1s
0q
1o
0n
1j
1g
0e
1c
0b
03
0^
1C
1>
1Z
0F
1W
0M
1K
1;
1S
0a
1_
0U
0Q
1?
1O
0/
1+
1(
1$
02
10
0&
0#
1D
1P
1R
1a
1^
1]
0Z
1Y
0W
0V
1U
12
1/
1.
0+
1*
0(
0'
1&
