TH/Lab4/LAB4/TrafficLight/simulation/qsim/TL.msim.vcd
$comment
	File created using the following command:
		vcd file TL.msim.vcd -direction
$end
$date
	Sun Dec 18 00:27:57 2022
$end
$version
	ModelSim Version 10.1d
$end
$timescale
	1ps
$end
$scope module TL_vlg_vec_tst $end
$var reg 1 ! CLK $end
$var reg 1 " RESET $end
$var wire 1 # EWG $end
$var wire 1 $ EWR $end
$var wire 1 % EWY $end
$var wire 1 & NSG $end
$var wire 1 ' NSR $end
$var wire 1 ( NSY $end
$var wire 1 ) sampler $end
$scope module i1 $end
$var wire 1 * gnd $end
$var wire 1 + vcc $end
$var wire 1 , unknown $end
$var tri1 1 - devclrn $end
$var tri1 1 . devpor $end
$var tri1 1 / devoe $end
$var wire 1 0 Counter|reg16|reg3|reg0|Q~regout $end
$var wire 1 1 Counter|reg16|reg5|reg0|Q~regout $end
$var wire 1 2 Counter|reg16|reg6|reg0|Q~regout $end
$var wire 1 3 Counter|reg16|reg7|reg0|Q~regout $end
$var wire 1 4 Counter|reg16|reg8|reg0|Q~regout $end
$var wire 1 5 Counter|reg16|reg9|reg0|Q~regout $end
$var wire 1 6 Counter|reg16|reg4|reg0|Q~regout $end
$var wire 1 7 Counter|reg16|reg2|reg0|Q~regout $end
$var wire 1 8 Counter|reg16|reg10|reg0|Q~regout $end
$var wire 1 9 Counter|reg16|reg2|reg0|Q~1_combout $end
$var wire 1 : Counter|reg16|reg3|reg0|Q~1_combout $end
$var wire 1 ; Counter|reg16|reg4|reg0|Q~1_combout $end
$var wire 1 < Counter|reg16|reg5|reg0|Q~1_combout $end
$var wire 1 = Counter|reg16|reg6|reg0|Q~1_combout $end
$var wire 1 > Counter|reg16|reg7|reg0|Q~1_combout $end
$var wire 1 ? Counter|reg16|reg8|reg0|Q~1_combout $end
$var wire 1 @ Counter|reg16|reg9|reg0|Q~1_combout $end
$var wire 1 A Counter|reg16|reg10|reg0|Q~1_combout $end
$var wire 1 B Counter|reg16|reg0|reg0|Q~regout $end
$var wire 1 C Compare|DONE~0_combout $end
$var wire 1 D Compare|DONE~1_combout $end
$var wire 1 E Compare|xor4~combout $end
$var wire 1 F Compare|xor2~combout $end
$var wire 1 G Compare|DONE~2_combout $end
$var wire 1 H Counter|reg16|reg0|reg0|Q~0_combout $end
$var wire 1 I CLK~combout $end
$var wire 1 J Counter|reg16|reg1|reg0|Q~1_combout $end
$var wire 1 K RESET~combout $end
$var wire 1 L FSM|OL|reg0|reg0|Q~regout $end
$var wire 1 M RESETcounter~combout $end
$var wire 1 N Counter|reg16|reg1|reg0|Q~regout $end
$var wire 1 O Counter|reg16|reg1|reg0|Q~2 $end
$var wire 1 P Counter|reg16|reg2|reg0|Q~2 $end
$var wire 1 Q Counter|reg16|reg3|reg0|Q~2 $end
$var wire 1 R Counter|reg16|reg4|reg0|Q~2 $end
$var wire 1 S Counter|reg16|reg5|reg0|Q~2 $end
$var wire 1 T Counter|reg16|reg6|reg0|Q~2 $end
$var wire 1 U Counter|reg16|reg7|reg0|Q~2 $end
$var wire 1 V Counter|reg16|reg8|reg0|Q~2 $end
$var wire 1 W Counter|reg16|reg9|reg0|Q~2 $end
$var wire 1 X Counter|reg16|reg10|reg0|Q~2 $end
$var wire 1 Y Counter|reg16|reg11|reg0|Q~1_combout $end
$var wire 1 Z Counter|reg16|reg11|reg0|Q~regout $end
$var wire 1 [ Counter|reg16|reg11|reg0|Q~2 $end
$var wire 1 \ Counter|reg16|reg12|reg0|Q~1_combout $end
$var wire 1 ] Counter|reg16|reg12|reg0|Q~regout $end
$var wire 1 ^ Counter|reg16|reg12|reg0|Q~2 $end
$var wire 1 _ Counter|reg16|reg13|reg0|Q~1_combout $end
$var wire 1 ` Counter|reg16|reg13|reg0|Q~regout $end
$var wire 1 a Compare|DONE~3_combout $end
$var wire 1 b Counter|reg16|reg13|reg0|Q~2 $end
$var wire 1 c Counter|reg16|reg14|reg0|Q~1_combout $end
$var wire 1 d Counter|reg16|reg14|reg0|Q~regout $end
$var wire 1 e Counter|reg16|reg14|reg0|Q~2 $end
$var wire 1 f Counter|reg16|reg15|reg0|Q~1_combout $end
$var wire 1 g Counter|reg16|reg15|reg0|Q~regout $end
$var wire 1 h Compare|DONE~4_combout $end
$var wire 1 i FSM|NSL|NextState[2]~1_combout $end
$var wire 1 j FSM|SR|reg2|reg0|Q~regout $end
$var wire 1 k FSM|NSL|NextState[0]~2_combout $end
$var wire 1 l FSM|SR|reg0|reg0|Q~regout $end
$var wire 1 m FSM|NSL|NextState[1]~0_combout $end
$var wire 1 n FSM|SR|reg1|reg0|Q~regout $end
$var wire 1 o FSM|OL|NSR~0_combout $end
$var wire 1 p FSM|OL|NSY~0_combout $end
$var wire 1 q FSM|OL|NSG~combout $end
$var wire 1 r FSM|OL|EWR~0_combout $end
$var wire 1 s FSM|OL|EWY~combout $end
$var wire 1 t FSM|OL|EWG~0_combout $end
$upscope $end
$upscope $end
$enddefinitions $end
#0
$dumpvars
1!
1"
0#
1$
0%
1&
0'
0(
x)
0*
1+
x,
1-
1.
1/
00
01
02
03
04
05
06
07
08
09
0:
0;
0<
0=
0>
0?
0@
0A
0B
1C
0D
0E
0F
1G
1H
1I
0J
1K
0L
1M
0N
0O
1P
0Q
1R
0S
1T
0U
1V
0W
1X
0Y
0Z
0[
0\
0]
1^
0_
0`
0a
0b
0c
0d
1e
0f
0g
0h
0i
0j
0k
0l
0m
0n
0o
0p
0q
0r
1s
0t
$end
#5000
0!
0I
0)
#10000
1!
1I
1)
#15000
0!
0I
0)
#20000
1!
1I
1)
#25000
0!
0I
0)
#30000
0"
1!
0K
1I
1)
0M
#35000
0!
0I
0)
#40000
1!
1I
1)
1B
1J
0H
#45000
0!
0I
0)
#50000
1!
1I
1)
1N
0B
1H
#55000
0!
0I
0)
#60000
1!
1I
1)
1B
1O
0J
0H
0C
19
#65000
0!
0I
0)
#70000
1!
1I
1)
0N
0B
17
0O
1C
1H
1F
0P
09
1P
19
1:
0:
#75000
0!
0I
0)
#80000
1!
1I
1)
1B
1J
0H
#85000
0!
0I
0)
#90000
1!
1I
1)
1N
0B
1H
#95000
0!
0I
0)
#100000
1!
1I
1)
1B
1O
0J
0H
0C
0P
09
1:
#105000
0!
0I
0)
#110000
1!
1I
1)
0N
0B
07
10
0O
1C
1H
0F
1P
19
1Q
0:
09
0Q
1:
1;
0;
#115000
0!
0I
0)
#120000
1!
1I
1)
1B
1J
0H
#125000
0!
0I
0)
#130000
1!
1I
1)
1N
0B
1H
#135000
0!
0I
0)
#140000
1!
1I
1)
1B
1O
0J
0H
19
#145000
0!
0I
0)
#150000
1!
1I
1)
0N
0B
17
0O
1H
1F
0P
09
1P
19
1Q
0:
0Q
1:
1;
0;
#155000
0!
0I
0)
#160000
1!
1I
1)
1B
1J
0H
#165000
0!
0I
0)
#170000
1!
1I
1)
1N
0B
1H
#175000
0!
0I
0)
#180000
1!
1I
1)
1B
1O
0J
0H
0P
09
1Q
0:
1;
#185000
0!
0I
0)
#190000
1!
1I
1)
0N
0B
07
16
00
0O
1H
0F
1P
19
1E
0R
0;
0Q
1:
09
0:
1<
1R
1;
0<
#195000
0!
0I
0)
#200000
1!
1I
1)
1B
1J
0H
#205000
0!
0I
0)
#210000
1!
1I
1)
1N
0B
1H
#215000
0!
0I
0)
#220000
1!
1I
1)
1B
1O
0J
0H
0C
19
#225000
0!
0I
0)
#230000
1!
1I
1)
0N
0B
17
0O
1C
1H
1F
0P
09
1P
19
1:
0:
#235000
0!
0I
0)
#240000
1!
1I
1)
1B
1J
0H
#245000
0!
0I
0)
#250000
1!
1I
1)
1N
0B
1H
#255000
0!
0I
0)
#260000
1!
1I
1)
1B
1O
0J
0H
0C
0P
09
0G
1:
1h
1k
#265000
0!
0I
0)
#270000
1!
1I
1)
1l
0N
1L
0B
07
10
1q
1p
1m
0k
0E
0O
1C
1M
1H
1P
19
1Q
0:
1G
09
0Q
1:
0R
0;
1(
0&
0h
1R
1;
1<
0m
1k
0<
06
00
1E
0;
0:
#275000
0!
0I
0)
#280000
1!
1I
1)
0L
0M
#285000
0!
0I
0)
#290000
1!
1I
1)
1B
1J
0H
#295000
0!
0I
0)
#300000
1!
1I
1)
1N
0B
1H
#305000
0!
0I
0)
#310000
1!
1I
1)
1B
1O
0J
0H
0C
19
0G
1h
1m
0k
#315000
0!
0I
0)
#320000
1!
1I
1)
1n
0l
0N
1L
0B
17
0p
1o
1k
0F
0O
1C
1M
1H
0P
09
1G
1P
19
1:
0(
1'
0h
0:
0k
07
1F
09
#325000
0!
0I
0)
#330000
1!
1I
1)
0L
0M
#335000
0!
0I
0)
#340000
1!
1I
1)
1B
1J
0H
#345000
0!
0I
0)
#350000
1!
1I
1)
1N
0B
1H
#355000
0!
0I
0)
#360000
1!
1I
1)
1B
1O
0J
0H
0C
19
0G
1h
1k
#365000
0!
0I
0)
#370000
1!
1I
1)
1l
0N
1L
0B
17
1t
1r
0m
0k
1i
0E
0O
1C
1M
1H
0P
09
1G
1P
19
1:
1#
0$
0h
0:
1m
1k
0i
07
0F
09
#375000
0!
0I
0)
#380000
1!
1I
1)
0L
0M
#385000
0!
0I
0)
#390000
1!
1I
1)
1B
1J
0H
#395000
0!
0I
0)
#400000
1!
1I
1)
1N
0B
1H
#405000
0!
0I
0)
#410000
1!
1I
1)
1B
1O
0J
0H
0C
19
#415000
0!
0I
0)
#420000
1!
1I
1)
0N
0B
17
0O
1C
1H
1F
0P
09
1P
19
1:
0:
#425000
0!
0I
0)
#430000
1!
1I
1)
1B
1J
0H
#435000
0!
0I
0)
#440000
1!
1I
1)
1N
0B
1H
#445000
0!
0I
0)
#450000
1!
1I
1)
1B
1O
0J
0H
0C
0P
09
1:
#455000
0!
0I
0)
#460000
1!
1I
1)
0N
0B
07
10
0O
1C
1H
0F
1P
19
1Q
0:
09
0Q
1:
1;
0;
#465000
0!
0I
0)
#470000
1!
1I
1)
1B
1J
0H
#475000
0!
0I
0)
#480000
1!
1I
1)
1N
0B
1H
#485000
0!
0I
0)
#490000
1!
1I
1)
1B
1O
0J
0H
19
#495000
0!
0I
0)
#500000
1!
1I
1)
0N
0B
17
0O
1H
1F
0P
09
1P
19
1Q
0:
0Q
1:
1;
0;
#505000
0!
0I
0)
#510000
1!
1I
1)
1B
1J
0H
#515000
0!
0I
0)
#520000
1!
1I
1)
1N
0B
1H
#525000
0!
0I
0)
#530000
1!
1I
1)
1B
1O
0J
0H
0P
09
1Q
0:
1;
#535000
0!
0I
0)
#540000
1!
1I
1)
0N
0B
07
16
00
0O
1H
0F
1P
19
1E
0R
0;
0Q
1:
09
0:
1<
1R
1;
0<
#545000
0!
0I
0)
#550000
1!
1I
1)
1B
1J
0H
#555000
0!
0I
0)
#560000
1!
1I
1)
1N
0B
1H
#565000
0!
0I
0)
#570000
1!
1I
1)
1B
1O
0J
0H
0C
19
#575000
0!
0I
0)
#580000
1!
1I
1)
0N
0B
17
0O
1C
1H
1F
0P
09
1P
19
1:
0:
#585000
0!
0I
0)
#590000
1!
1I
1)
1B
1J
0H
#595000
0!
0I
0)
#600000
1!
1I
1)
1N
0B
1H
#605000
0!
0I
0)
#610000
1!
1I
1)
1B
1O
0J
0H
0C
0P
09
0G
1:
1h
0m
0k
1i
#615000
0!
0I
0)
#620000
1!
1I
1)
0n
0l
1j
0N
1L
0B
07
10
0t
0s
1k
0E
0O
1C
1M
1H
1P
19
1Q
0:
1G
09
0Q
1:
0R
0;
0#
1%
0h
1R
1;
1<
0k
0<
06
00
1E
0;
0:
#625000
0!
0I
0)
#630000
1!
1I
1)
0L
0M
#635000
0!
0I
0)
#640000
1!
1I
1)
1B
1J
0H
#645000
0!
0I
0)
#650000
1!
1I
1)
1N
0B
1H
#655000
0!
0I
0)
#660000
1!
1I
1)
1B
1O
0J
0H
0C
19
0G
1h
1k
#665000
0!
0I
0)
#670000
1!
1I
1)
1l
0N
1L
0B
17
1s
0r
0k
0i
0F
0O
1C
1M
1H
0P
09
1G
1P
19
1:
0%
1$
0h
0:
1k
1i
07
1F
09
#675000
0!
0I
0)
#680000
1!
1I
1)
0L
0M
#685000
0!
0I
0)
#690000
1!
1I
1)
1B
1J
0H
#695000
0!
0I
0)
#700000
1!
1I
1)
1N
0B
1H
#705000
0!
0I
0)
#710000
1!
1I
1)
1B
1O
0J
0H
0C
19
0G
1h
0k
0i
#715000
0!
0I
0)
#720000
1!
1I
1)
0l
0j
0N
1L
0B
17
0q
1k
0E
0o
0O
1C
1M
1H
0P
09
1G
1P
19
1:
0'
1&
0h
0:
0k
07
0F
09
#725000
0!
0I
0)
#730000
1!
1I
1)
0L
0M
#735000
0!
0I
0)
#740000
1!
1I
1)
1B
1J
0H
#745000
0!
0I
0)
#750000
1!
1I
1)
1N
0B
1H
#755000
0!
0I
0)
#760000
1!
1I
1)
1B
1O
0J
0H
0C
19
#765000
0!
0I
0)
#770000
1!
1I
1)
0N
0B
17
0O
1C
1H
1F
0P
09
1P
19
1:
0:
#775000
0!
0I
0)
#780000
1!
1I
1)
1B
1J
0H
#785000
0!
0I
0)
#790000
1!
1I
1)
1N
0B
1H
#795000
0!
0I
0)
#800000
1!
1I
1)
1B
1O
0J
0H
0C
0P
09
1:
#805000
0!
0I
0)
#810000
1!
1I
1)
0N
0B
07
10
0O
1C
1H
0F
1P
19
1Q
0:
09
0Q
1:
1;
0;
#815000
0!
0I
0)
#820000
1!
1I
1)
1B
1J
0H
#825000
0!
0I
0)
#830000
1!
1I
1)
1N
0B
1H
#835000
0!
0I
0)
#840000
1!
1I
1)
1B
1O
0J
0H
19
#845000
0!
0I
0)
#850000
1!
1I
1)
0N
0B
17
0O
1H
1F
0P
09
1P
19
1Q
0:
0Q
1:
1;
0;
#855000
0!
0I
0)
#860000
1!
1I
1)
1B
1J
0H
#865000
0!
0I
0)
#870000
1!
1I
1)
1N
0B
1H
#875000
0!
0I
0)
#880000
1!
1I
1)
1B
1O
0J
0H
0P
09
1Q
0:
1;
#885000
0!
0I
0)
#890000
1!
1I
1)
0N
0B
07
16
00
0O
1H
0F
1P
19
1E
0R
0;
0Q
1:
09
0:
1<
1R
1;
0<
#895000
0!
0I
0)
#900000
1!
1I
1)
1B
1J
0H
#905000
0!
0I
0)
#910000
1!
1I
1)
1N
0B
1H
#915000
0!
0I
0)
#920000
1!
1I
1)
1B
1O
0J
0H
0C
19
#925000
0!
0I
0)
#930000
1!
1I
1)
0N
0B
17
0O
1C
1H
1F
0P
09
1P
19
1:
0:
#935000
0!
0I
0)
#940000
1!
1I
1)
1B
1J
0H
#945000
0!
0I
0)
#950000
1!
1I
1)
1N
0B
1H
#955000
0!
0I
0)
#960000
1!
1I
1)
1B
1O
0J
0H
0C
0P
09
0G
1:
1h
1k
#965000
0!
0I
0)
#970000
1!
1I
1)
1l
0N
1L
0B
07
10
1q
1p
1m
0k
0E
0O
1C
1M
1H
1P
19
1Q
0:
1G
09
0Q
1:
0R
0;
1(
0&
0h
1R
1;
1<
0m
1k
0<
06
00
1E
0;
0:
#975000
0!
0I
0)
#980000
1!
1I
1)
0L
0M
#985000
0!
0I
0)
#990000
1!
1I
1)
1B
1J
0H
#995000
0!
0I
0)
